DSCH3
VERSION 11/26/2016 8:03:46 PM
BB(-25,-70,275,150)
SYM  #digit
BB(110,-70,135,-35)
TITLE 110 -38  #digit1
MODEL 89
PROP                                                                                                                                    
REC(115,-65,15,21,r)
VIS 4
PIN(115,-35,0.000,0.000)digit1
PIN(120,-35,0.000,0.000)digit2
PIN(125,-35,0.000,0.000)digit3
PIN(130,-35,0.000,0.000)digit4
LIG(110,-70,110,-40)
LIG(135,-70,110,-70)
LIG(135,-40,135,-70)
LIG(110,-40,135,-40)
LIG(115,-40,115,-35)
LIG(120,-40,120,-35)
LIG(125,-40,125,-35)
LIG(130,-40,130,-35)
FSYM
SYM  #inv
BB(5,-5,40,15)
TITLE 20 5  #~
MODEL 101
PROP                                                                                                                                    
REC(-5,0,0,0, )
VIS 0
PIN(5,5,0.000,0.000)in
PIN(40,5,0.030,0.070)out
LIG(5,5,15,5)
LIG(15,-5,15,15)
LIG(15,-5,30,5)
LIG(15,15,30,5)
LIG(32,5,32,5)
LIG(34,5,40,5)
VLG   not not1(out,in);
FSYM
SYM  #nor2
BB(205,130,240,150)
TITLE 225 140  #|
MODEL 302
PROP                                                                                                                                    
REC(95,100,0,0, )
VIS 0
PIN(205,135,0.000,0.000)a
PIN(205,145,0.000,0.000)b
PIN(240,140,0.090,0.140)s
LIG(205,145,218,145)
LIG(217,147,213,150)
LIG(232,142,229,146)
LIG(233,140,232,142)
LIG(232,138,233,140)
LIG(229,134,232,138)
LIG(224,131,229,134)
LIG(229,146,224,149)
LIG(224,149,213,150)
LIG(213,130,224,131)
LIG(219,143,217,147)
LIG(213,130,217,133)
LIG(217,133,219,137)
LIG(219,137,220,140)
LIG(220,140,219,143)
LIG(205,135,218,135)
LIG(237,140,240,140)
LIG(235,140,235,140)
VLG   nor nor2(s,a,b);
FSYM
SYM  #clock
BB(-25,22,-10,28)
TITLE -20 25  #clock1
MODEL 69
PROP   80.000 80.000                                                                                                                                
REC(-23,23,6,4,r)
VIS 1
PIN(-10,25,1.500,0.210)clk1
LIG(-15,25,-10,25)
LIG(-20,23,-22,23)
LIG(-16,23,-18,23)
LIG(-15,22,-15,28)
LIG(-25,28,-25,22)
LIG(-20,27,-20,23)
LIG(-18,23,-18,27)
LIG(-18,27,-20,27)
LIG(-22,27,-24,27)
LIG(-22,23,-22,27)
LIG(-15,28,-25,28)
LIG(-15,22,-25,22)
FSYM
SYM  #nor2
BB(200,105,235,125)
TITLE 220 115  #|
MODEL 302
PROP                                                                                                                                    
REC(95,100,0,0, )
VIS 0
PIN(200,110,0.000,0.000)a
PIN(200,120,0.000,0.000)b
PIN(235,115,0.090,0.070)s
LIG(200,120,213,120)
LIG(212,122,208,125)
LIG(227,117,224,121)
LIG(228,115,227,117)
LIG(227,113,228,115)
LIG(224,109,227,113)
LIG(219,106,224,109)
LIG(224,121,219,124)
LIG(219,124,208,125)
LIG(208,105,219,106)
LIG(214,118,212,122)
LIG(208,105,212,108)
LIG(212,108,214,112)
LIG(214,112,215,115)
LIG(215,115,214,118)
LIG(200,110,213,110)
LIG(232,115,235,115)
LIG(230,115,230,115)
VLG   nor nor2(s,a,b);
FSYM
SYM  #and2
BB(155,125,190,145)
TITLE 167 136  #&
MODEL 402
PROP                                                                                                                                    
REC(110,100,0,0, )
VIS 0
PIN(155,140,0.000,0.000)b
PIN(155,130,0.000,0.000)a
PIN(190,135,0.090,0.070)s
LIG(155,140,163,140)
LIG(163,125,163,145)
LIG(183,135,190,135)
LIG(182,137,179,141)
LIG(183,135,182,137)
LIG(182,133,183,135)
LIG(179,129,182,133)
LIG(174,126,179,129)
LIG(179,141,174,144)
LIG(174,144,163,145)
LIG(163,125,174,126)
LIG(155,130,163,130)
VLG   and and2(out,a,b);
FSYM
SYM  #button
BB(-24,66,-15,74)
TITLE -20 70  #button1
MODEL 59
PROP                                                                                                                                    
REC(-23,67,6,6,r)
VIS 1
PIN(-15,70,0.000,0.000)in1
LIG(-16,70,-15,70)
LIG(-24,74,-24,66)
LIG(-16,74,-24,74)
LIG(-16,66,-16,74)
LIG(-24,66,-16,66)
LIG(-23,73,-23,67)
LIG(-17,73,-23,73)
LIG(-17,67,-17,73)
LIG(-23,67,-17,67)
FSYM
SYM  #and2
BB(45,0,80,20)
TITLE 57 11  #&
MODEL 402
PROP                                                                                                                                    
REC(0,0,0,0, )
VIS 0
PIN(45,15,0.000,0.000)b
PIN(45,5,0.000,0.000)a
PIN(80,10,0.090,0.070)s
LIG(45,15,53,15)
LIG(53,0,53,20)
LIG(73,10,80,10)
LIG(72,12,69,16)
LIG(73,10,72,12)
LIG(72,8,73,10)
LIG(69,4,72,8)
LIG(64,1,69,4)
LIG(69,16,64,19)
LIG(64,19,53,20)
LIG(53,0,64,1)
LIG(45,5,53,5)
VLG   and and2(out,a,b);
FSYM
SYM  #and2
BB(45,25,80,45)
TITLE 57 36  #&
MODEL 402
PROP                                                                                                                                    
REC(0,0,0,0, )
VIS 0
PIN(45,40,0.000,0.000)b
PIN(45,30,0.000,0.000)a
PIN(80,35,0.090,0.070)s
LIG(45,40,53,40)
LIG(53,25,53,45)
LIG(73,35,80,35)
LIG(72,37,69,41)
LIG(73,35,72,37)
LIG(72,33,73,35)
LIG(69,29,72,33)
LIG(64,26,69,29)
LIG(69,41,64,44)
LIG(64,44,53,45)
LIG(53,25,64,26)
LIG(45,30,53,30)
VLG   and and2(out,a,b);
FSYM
SYM  #nor2
BB(90,5,125,25)
TITLE 110 15  #|
MODEL 302
PROP                                                                                                                                    
REC(-15,0,0,0, )
VIS 0
PIN(90,10,0.000,0.000)a
PIN(90,20,0.000,0.000)b
PIN(125,15,0.090,0.140)s
LIG(90,20,103,20)
LIG(102,22,98,25)
LIG(117,17,114,21)
LIG(118,15,117,17)
LIG(117,13,118,15)
LIG(114,9,117,13)
LIG(109,6,114,9)
LIG(114,21,109,24)
LIG(109,24,98,25)
LIG(98,5,109,6)
LIG(104,18,102,22)
LIG(98,5,102,8)
LIG(102,8,104,12)
LIG(104,12,105,15)
LIG(105,15,104,18)
LIG(90,10,103,10)
LIG(122,15,125,15)
LIG(120,15,120,15)
VLG   nor nor2(s,a,b);
FSYM
SYM  #nor2
BB(95,30,130,50)
TITLE 115 40  #|
MODEL 302
PROP                                                                                                                                    
REC(-15,0,0,0, )
VIS 0
PIN(95,35,0.000,0.000)a
PIN(95,45,0.000,0.000)b
PIN(130,40,0.090,0.210)s
LIG(95,45,108,45)
LIG(107,47,103,50)
LIG(122,42,119,46)
LIG(123,40,122,42)
LIG(122,38,123,40)
LIG(119,34,122,38)
LIG(114,31,119,34)
LIG(119,46,114,49)
LIG(114,49,103,50)
LIG(103,30,114,31)
LIG(109,43,107,47)
LIG(103,30,107,33)
LIG(107,33,109,37)
LIG(109,37,110,40)
LIG(110,40,109,43)
LIG(95,35,108,35)
LIG(127,40,130,40)
LIG(125,40,125,40)
VLG   nor nor2(s,a,b);
FSYM
SYM  #and2
BB(155,100,190,120)
TITLE 167 111  #&
MODEL 402
PROP                                                                                                                                    
REC(110,100,0,0, )
VIS 0
PIN(155,115,0.000,0.000)b
PIN(155,105,0.000,0.000)a
PIN(190,110,0.090,0.070)s
LIG(155,115,163,115)
LIG(163,100,163,120)
LIG(183,110,190,110)
LIG(182,112,179,116)
LIG(183,110,182,112)
LIG(182,108,183,110)
LIG(179,104,182,108)
LIG(174,101,179,104)
LIG(179,116,174,119)
LIG(174,119,163,120)
LIG(163,100,174,101)
LIG(155,105,163,105)
VLG   and and2(out,a,b);
FSYM
SYM  #and2
BB(180,0,215,20)
TITLE 192 11  #&
MODEL 402
PROP                                                                                                                                    
REC(135,0,0,0, )
VIS 0
PIN(180,15,0.000,0.000)b
PIN(180,5,0.000,0.000)a
PIN(215,10,0.090,0.070)s
LIG(180,15,188,15)
LIG(188,0,188,20)
LIG(208,10,215,10)
LIG(207,12,204,16)
LIG(208,10,207,12)
LIG(207,8,208,10)
LIG(204,4,207,8)
LIG(199,1,204,4)
LIG(204,16,199,19)
LIG(199,19,188,20)
LIG(188,0,199,1)
LIG(180,5,188,5)
VLG   and and2(out,a,b);
FSYM
SYM  #and2
BB(180,25,215,45)
TITLE 192 36  #&
MODEL 402
PROP                                                                                                                                    
REC(135,0,0,0, )
VIS 0
PIN(180,40,0.000,0.000)b
PIN(180,30,0.000,0.000)a
PIN(215,35,0.090,0.070)s
LIG(180,40,188,40)
LIG(188,25,188,45)
LIG(208,35,215,35)
LIG(207,37,204,41)
LIG(208,35,207,37)
LIG(207,33,208,35)
LIG(204,29,207,33)
LIG(199,26,204,29)
LIG(204,41,199,44)
LIG(199,44,188,45)
LIG(188,25,199,26)
LIG(180,30,188,30)
VLG   and and2(out,a,b);
FSYM
SYM  #nor2
BB(225,5,260,25)
TITLE 245 15  #|
MODEL 302
PROP                                                                                                                                    
REC(120,0,0,0, )
VIS 0
PIN(225,10,0.000,0.000)a
PIN(225,20,0.000,0.000)b
PIN(260,15,0.090,0.140)s
LIG(225,20,238,20)
LIG(237,22,233,25)
LIG(252,17,249,21)
LIG(253,15,252,17)
LIG(252,13,253,15)
LIG(249,9,252,13)
LIG(244,6,249,9)
LIG(249,21,244,24)
LIG(244,24,233,25)
LIG(233,5,244,6)
LIG(239,18,237,22)
LIG(233,5,237,8)
LIG(237,8,239,12)
LIG(239,12,240,15)
LIG(240,15,239,18)
LIG(225,10,238,10)
LIG(257,15,260,15)
LIG(255,15,255,15)
VLG   nor nor2(s,a,b);
FSYM
SYM  #nor2
BB(230,30,265,50)
TITLE 250 40  #|
MODEL 302
PROP                                                                                                                                    
REC(120,0,0,0, )
VIS 0
PIN(230,35,0.000,0.000)a
PIN(230,45,0.000,0.000)b
PIN(265,40,0.090,0.210)s
LIG(230,45,243,45)
LIG(242,47,238,50)
LIG(257,42,254,46)
LIG(258,40,257,42)
LIG(257,38,258,40)
LIG(254,34,257,38)
LIG(249,31,254,34)
LIG(254,46,249,49)
LIG(249,49,238,50)
LIG(238,30,249,31)
LIG(244,43,242,47)
LIG(238,30,242,33)
LIG(242,33,244,37)
LIG(244,37,245,40)
LIG(245,40,244,43)
LIG(230,35,243,35)
LIG(262,40,265,40)
LIG(260,40,260,40)
VLG   nor nor2(s,a,b);
FSYM
SYM  #or2
BB(155,-45,175,-10)
TITLE 165 -30  #|
MODEL 502
PROP                                                                                                                                   
REC(195,165,0,0, )
VIS 0
PIN(160,-10,0.000,0.000)a
PIN(170,-10,0.000,0.000)b
PIN(165,-45,0.090,0.070)s
LIG(170,-10,170,-23)
LIG(172,-22,175,-18)
LIG(165,-38,165,-45)
LIG(167,-37,171,-34)
LIG(165,-38,167,-37)
LIG(163,-37,165,-38)
LIG(159,-34,163,-37)
LIG(156,-29,159,-34)
LIG(171,-34,174,-29)
LIG(174,-29,175,-18)
LIG(155,-18,156,-29)
LIG(168,-24,172,-22)
LIG(155,-18,158,-22)
LIG(158,-22,162,-24)
LIG(162,-24,165,-25)
LIG(165,-25,168,-24)
LIG(160,-10,160,-23)
VLG  or or2(s,a,b);
FSYM
SYM  #and2
BB(40,100,75,120)
TITLE 52 111  #&
MODEL 402
PROP                                                                                                                                    
REC(-5,100,0,0, )
VIS 0
PIN(40,115,0.000,0.000)b
PIN(40,105,0.000,0.000)a
PIN(75,110,0.090,0.070)s
LIG(40,115,48,115)
LIG(48,100,48,120)
LIG(68,110,75,110)
LIG(67,112,64,116)
LIG(68,110,67,112)
LIG(67,108,68,110)
LIG(64,104,67,108)
LIG(59,101,64,104)
LIG(64,116,59,119)
LIG(59,119,48,120)
LIG(48,100,59,101)
LIG(40,105,48,105)
VLG   and and2(out,a,b);
FSYM
SYM  #and2
BB(40,125,75,145)
TITLE 52 136  #&
MODEL 402
PROP                                                                                                                                    
REC(-5,100,0,0, )
VIS 0
PIN(40,140,0.000,0.000)b
PIN(40,130,0.000,0.000)a
PIN(75,135,0.090,0.070)s
LIG(40,140,48,140)
LIG(48,125,48,145)
LIG(68,135,75,135)
LIG(67,137,64,141)
LIG(68,135,67,137)
LIG(67,133,68,135)
LIG(64,129,67,133)
LIG(59,126,64,129)
LIG(64,141,59,144)
LIG(59,144,48,145)
LIG(48,125,59,126)
LIG(40,130,48,130)
VLG   and and2(out,a,b);
FSYM
SYM  #nor2
BB(85,105,120,125)
TITLE 105 115  #|
MODEL 302
PROP                                                                                                                                    
REC(-20,100,0,0, )
VIS 0
PIN(85,110,0.000,0.000)a
PIN(85,120,0.000,0.000)b
PIN(120,115,0.090,0.140)s
LIG(85,120,98,120)
LIG(97,122,93,125)
LIG(112,117,109,121)
LIG(113,115,112,117)
LIG(112,113,113,115)
LIG(109,109,112,113)
LIG(104,106,109,109)
LIG(109,121,104,124)
LIG(104,124,93,125)
LIG(93,105,104,106)
LIG(99,118,97,122)
LIG(93,105,97,108)
LIG(97,108,99,112)
LIG(99,112,100,115)
LIG(100,115,99,118)
LIG(85,110,98,110)
LIG(117,115,120,115)
LIG(115,115,115,115)
VLG   nor nor2(s,a,b);
FSYM
SYM  #nor2
BB(90,130,125,150)
TITLE 110 140  #|
MODEL 302
PROP                                                                                                                                    
REC(-20,100,0,0, )
VIS 0
PIN(90,135,0.000,0.000)a
PIN(90,145,0.000,0.000)b
PIN(125,140,0.090,0.140)s
LIG(90,145,103,145)
LIG(102,147,98,150)
LIG(117,142,114,146)
LIG(118,140,117,142)
LIG(117,138,118,140)
LIG(114,134,117,138)
LIG(109,131,114,134)
LIG(114,146,109,149)
LIG(109,149,98,150)
LIG(98,130,109,131)
LIG(104,143,102,147)
LIG(98,130,102,133)
LIG(102,133,104,137)
LIG(104,137,105,140)
LIG(105,140,104,143)
LIG(90,135,103,135)
LIG(122,140,125,140)
LIG(120,140,120,140)
VLG   nor nor2(s,a,b);
FSYM
SYM  #inv
BB(20,25,40,60)
TITLE 30 40  #~
MODEL 101
PROP                                                                                                                                   
REC(25,100,0,0, )
VIS 0
PIN(30,25,0.000,0.000)in
PIN(30,60,0.030,0.280)out
LIG(30,25,30,35)
LIG(40,35,20,35)
LIG(40,35,30,50)
LIG(20,35,30,50)
LIG(30,52,30,52)
LIG(30,54,30,60)
VLG  not not1(out,in);
FSYM
CNC(275 30)
CNC(130 30)
CNC(45 25)
CNC(125 -25)
CNC(145 60)
CNC(265 30)
CNC(135 125)
CNC(5 50)
CNC(260 20)
CNC(180 25)
CNC(125 20)
CNC(5 70)
CNC(120 120)
CNC(275 -5)
CNC(40 120)
CNC(125 130)
CNC(155 120)
CNC(240 130)
CNC(145 70)
CNC(35 120)
LIG(140,95,140,-10)
LIG(15,85,15,140)
LIG(40,75,40,105)
LIG(125,-35,125,-25)
LIG(140,-10,160,-10)
LIG(5,50,5,70)
LIG(125,15,125,20)
LIG(15,40,15,50)
LIG(-15,70,5,70)
LIG(165,-45,140,-45)
LIG(15,140,45,140)
LIG(240,130,250,130)
LIG(270,20,270,75)
LIG(250,95,140,95)
LIG(250,130,250,95)
LIG(145,140,155,140)
LIG(260,20,260,25)
LIG(145,125,145,140)
LIG(-10,25,45,25)
LIG(270,75,40,75)
LIG(5,5,5,50)
LIG(140,-25,125,-25)
LIG(140,-45,140,-25)
LIG(45,25,45,30)
LIG(45,25,45,15)
LIG(130,30,130,40)
LIG(90,30,130,30)
LIG(90,20,90,30)
LIG(95,25,95,35)
LIG(125,25,95,25)
LIG(260,20,270,20)
LIG(80,35,90,35)
LIG(90,35,90,45)
LIG(90,45,95,45)
LIG(80,10,90,10)
LIG(40,5,45,5)
LIG(130,40,180,40)
LIG(190,110,200,110)
LIG(135,125,135,130)
LIG(130,-35,130,30)
LIG(135,125,145,125)
LIG(200,135,200,145)
LIG(130,105,130,120)
LIG(155,105,130,105)
LIG(120,120,120,125)
LIG(120,120,130,120)
LIG(145,70,165,70)
LIG(235,115,235,125)
LIG(275,-5,170,-5)
LIG(145,120,145,70)
LIG(15,40,45,40)
LIG(275,30,275,-5)
LIG(260,15,260,20)
LIG(260,25,230,25)
LIG(230,25,230,35)
LIG(225,20,225,30)
LIG(225,30,265,30)
LIG(265,30,265,40)
LIG(180,25,180,15)
LIG(180,25,180,30)
LIG(165,25,180,25)
LIG(215,35,225,35)
LIG(225,35,225,45)
LIG(225,45,230,45)
LIG(215,10,225,10)
LIG(165,25,165,60)
LIG(265,30,275,30)
LIG(275,30,275,85)
LIG(15,85,275,85)
LIG(155,120,155,130)
LIG(190,135,200,135)
LIG(125,20,170,20)
LIG(125,20,125,25)
LIG(170,20,170,5)
LIG(170,5,180,5)
LIG(200,145,205,145)
LIG(30,60,145,60)
LIG(5,70,35,70)
LIG(125,-25,120,-25)
LIG(275,-5,275,-20)
LIG(170,-5,170,-10)
LIG(135,5,135,125)
LIG(30,120,35,120)
LIG(120,125,90,125)
LIG(90,125,90,135)
LIG(85,120,85,130)
LIG(85,130,125,130)
LIG(125,130,125,140)
LIG(40,115,40,120)
LIG(75,135,85,135)
LIG(85,135,85,145)
LIG(85,145,90,145)
LIG(75,110,85,110)
LIG(120,115,120,120)
LIG(125,130,135,130)
LIG(40,120,40,130)
LIG(145,120,155,120)
LIG(235,125,205,125)
LIG(205,125,205,135)
LIG(200,120,200,130)
LIG(200,130,240,130)
LIG(240,130,240,140)
LIG(155,115,155,120)
LIG(15,50,5,50)
LIG(35,70,35,120)
LIG(145,60,165,60)
LIG(35,120,40,120)
LIG(145,70,145,60)
FFIG C:\Users\AcidRobot\github\clock_work\D_Latch.sch
