DSCH3
VERSION 11/26/2016 1:50:32 PM
BB(90,-145,320,53)
SYM  #button
BB(310,-29,319,-21)
TITLE 315 -25  #button5
MODEL 59
PROP                                                                                                                                   
REC(312,-28,6,6,r)
VIS 1
PIN(310,-25,0.000,0.000)in5
LIG(311,-25,310,-25)
LIG(319,-21,319,-29)
LIG(311,-21,319,-21)
LIG(311,-29,311,-21)
LIG(319,-29,311,-29)
LIG(318,-22,318,-28)
LIG(312,-22,318,-22)
LIG(312,-28,312,-22)
LIG(318,-28,312,-28)
FSYM
SYM  #button
BB(310,6,319,14)
TITLE 315 10  #button4
MODEL 59
PROP                                                                                                                                   
REC(312,7,6,6,r)
VIS 1
PIN(310,10,0.000,0.000)in4
LIG(311,10,310,10)
LIG(319,14,319,6)
LIG(311,14,319,14)
LIG(311,6,311,14)
LIG(319,6,311,6)
LIG(318,13,318,7)
LIG(312,13,318,13)
LIG(312,7,312,13)
LIG(318,7,312,7)
FSYM
SYM  #nand3
BB(275,-105,305,-70)
TITLE 290 -90  #&
MODEL 203
PROP                                                                                                                                   
REC(305,-105,0,0,P)
VIS 0
PIN(300,-105,0.000,0.000)a
PIN(290,-105,0.000,0.000)b
PIN(280,-105,0.000,0.000)c
PIN(290,-65,0.060,0.070)s
LIG(280,-105,280,-95)
LIG(290,-105,290,-95)
LIG(300,-105,300,-95)
LIG(290,-95,275,-95)
LIG(279,-80,276,-85)
LIG(287,-76,279,-80)
LIG(305,-95,290,-95)
LIG(305,-95,304,-85)
LIG(290,-75,287,-76)
LIG(293,-76,290,-75)
LIG(275,-95,276,-85)
LIG(301,-80,293,-76)
LIG(304,-85,301,-80)
LIG(290,-71,290,-65)
LIG(290,-73,290,-73)
VLG  nand nand3(out,a,b,c);
FSYM
SYM  #and2
BB(240,15,275,35)
TITLE 263 26  #&
MODEL 402
PROP                                                                                                                                   
REC(535,115,0,0, )
VIS 0
PIN(275,30,0.000,0.000)b
PIN(275,20,0.000,0.000)a
PIN(240,25,0.090,0.070)s
LIG(275,30,267,30)
LIG(267,15,267,35)
LIG(247,25,240,25)
LIG(248,27,251,31)
LIG(247,25,248,27)
LIG(248,23,247,25)
LIG(251,19,248,23)
LIG(256,16,251,19)
LIG(251,31,256,34)
LIG(256,34,267,35)
LIG(267,15,256,16)
LIG(275,20,267,20)
VLG  and and2(out,a,b);
FSYM
SYM  #digit
BB(140,-145,165,-110)
TITLE 140 -113  #digit1
MODEL 89
PROP                                                                                                                                   
REC(145,-140,15,21,r)
VIS 4
PIN(145,-110,0.000,0.000)digit1
PIN(150,-110,0.000,0.000)digit2
PIN(155,-110,0.000,0.000)digit3
PIN(160,-110,0.000,0.000)digit4
LIG(140,-145,140,-115)
LIG(165,-145,140,-145)
LIG(165,-115,165,-145)
LIG(140,-115,165,-115)
LIG(145,-115,145,-110)
LIG(150,-115,150,-110)
LIG(155,-115,155,-110)
LIG(160,-115,160,-110)
FSYM
SYM  #and2
BB(180,-60,215,-40)
TITLE 203 -49  #&
MODEL 402
PROP                                                                                                                                   
REC(340,5,0,0, )
VIS 0
PIN(215,-45,0.000,0.000)b
PIN(215,-55,0.000,0.000)a
PIN(180,-50,0.090,0.000)s
LIG(215,-45,207,-45)
LIG(207,-60,207,-40)
LIG(187,-50,180,-50)
LIG(188,-48,191,-44)
LIG(187,-50,188,-48)
LIG(188,-52,187,-50)
LIG(191,-56,188,-52)
LIG(196,-59,191,-56)
LIG(191,-44,196,-41)
LIG(196,-41,207,-40)
LIG(207,-60,196,-59)
LIG(215,-55,207,-55)
VLG  and and2(out,a,b);
FSYM
SYM  #button
BB(310,-9,319,-1)
TITLE 315 -5  #button3
MODEL 59
PROP                                                                                                                                   
REC(312,-8,6,6,r)
VIS 1
PIN(310,-5,0.000,0.000)in3
LIG(311,-5,310,-5)
LIG(319,-1,319,-9)
LIG(311,-1,319,-1)
LIG(311,-9,311,-1)
LIG(319,-9,311,-9)
LIG(318,-2,318,-8)
LIG(312,-2,318,-2)
LIG(312,-8,312,-2)
LIG(318,-8,312,-8)
FSYM
SYM  #dreg
BB(175,-30,205,-5)
TITLE 193 -22  #dreg1
MODEL 860
PROP                                                                                                                                   
REC(230,-40,0,0,r)
VIS 5
PIN(205,-25,0.000,0.000)D
PIN(205,-15,0.000,0.000)RST
PIN(190,-5,0.000,0.000)H
PIN(175,-15,0.120,0.280)Q
PIN(175,-25,0.120,0.000)nQ
LIG(205,-15,200,-15)
LIG(205,-25,200,-25)
LIG(190,-5,190,-6)
LIG(190,-8,190,-8)
LIG(180,-15,175,-15)
LIG(180,-25,175,-25)
LIG(180,-10,200,-10)
LIG(180,-30,180,-10)
LIG(200,-30,180,-30)
LIG(200,-10,200,-30)
LIG(191,-10,190,-12)
LIG(190,-12,189,-10)
VLG     module dreg(D,RST,H,Q,nQ);
VLG      input D,RST,H;
VLG      output Q,nQ;
VLG     endmodule
FSYM
SYM  #xor2
BB(240,-40,275,-20)
TITLE 258 -30  #^
MODEL 602
PROP                                                                                                                                   
REC(335,5,0,0, )
VIS 0
PIN(275,-35,0.000,0.000)a
PIN(275,-25,0.000,0.000)b
PIN(240,-30,0.090,0.070)out
LIG(267,-23,271,-20)
LIG(263,-23,267,-20)
LIG(247,-30,240,-30)
LIG(248,-28,251,-24)
LIG(247,-30,248,-28)
LIG(248,-32,247,-30)
LIG(251,-36,248,-32)
LIG(256,-39,251,-36)
LIG(251,-24,256,-21)
LIG(256,-21,267,-20)
LIG(267,-40,256,-39)
LIG(261,-27,263,-23)
LIG(267,-40,263,-37)
LIG(263,-37,261,-33)
LIG(261,-33,260,-30)
LIG(260,-30,261,-27)
LIG(271,-40,267,-37)
LIG(267,-37,265,-33)
LIG(265,-33,264,-30)
LIG(264,-30,265,-27)
LIG(265,-27,267,-23)
LIG(275,-35,266,-35)
LIG(275,-25,266,-25)
VLG  xor xor2(out,a,b);
FSYM
SYM  #and2
BB(205,-35,240,-15)
TITLE 228 -24  #&
MODEL 402
PROP                                                                                                                                   
REC(300,-15,0,0, )
VIS 0
PIN(240,-20,0.000,0.000)b
PIN(240,-30,0.000,0.000)a
PIN(205,-25,0.090,0.070)s
LIG(240,-20,232,-20)
LIG(232,-35,232,-15)
LIG(212,-25,205,-25)
LIG(213,-23,216,-19)
LIG(212,-25,213,-23)
LIG(213,-27,212,-25)
LIG(216,-31,213,-27)
LIG(221,-34,216,-31)
LIG(216,-19,221,-16)
LIG(221,-16,232,-15)
LIG(232,-35,221,-34)
LIG(240,-30,232,-30)
VLG  and and2(out,a,b);
FSYM
SYM  #clock
BB(305,47,320,53)
TITLE 315 50  #clock1
MODEL 69
PROP   40.000 40.000                                                                                                                               
REC(312,48,6,4,r)
VIS 1
PIN(305,50,1.500,0.070)clk1
LIG(310,50,305,50)
LIG(315,48,317,48)
LIG(311,48,313,48)
LIG(310,47,310,53)
LIG(320,53,320,47)
LIG(315,52,315,48)
LIG(313,48,313,52)
LIG(313,52,315,52)
LIG(317,52,319,52)
LIG(317,48,317,52)
LIG(310,53,320,53)
LIG(310,47,320,47)
FSYM
CNC(160 -70)
CNC(270 -70)
CNC(215 -70)
CNC(280 -25)
CNC(190 50)
LIG(310,-5,275,-5)
LIG(275,-5,275,20)
LIG(290,-65,290,30)
LIG(290,30,270,30)
LIG(275,-25,280,-25)
LIG(310,-25,310,-105)
LIG(310,-105,300,-105)
LIG(215,-70,270,-70)
LIG(160,-15,175,-15)
LIG(160,-110,160,-70)
LIG(145,-105,280,-105)
LIG(160,-70,215,-70)
LIG(160,-70,160,-15)
LIG(275,-70,275,-35)
LIG(145,-110,145,-105)
LIG(215,-70,215,-55)
LIG(280,-25,280,-45)
LIG(280,-25,310,-25)
LIG(215,-45,280,-45)
LIG(240,25,240,-20)
LIG(270,-70,270,-115)
LIG(270,-70,275,-70)
LIG(270,-115,290,-115)
LIG(290,-115,290,-105)
LIG(90,50,190,50)
LIG(190,50,305,50)
LIG(190,-5,190,50)
FFIG C:\Users\AcidRobot\github\clock_work\save_one_ex.sch
