USER SYMBOL by DSCH3
DATE 11/26/2016 4:19:21 PM
SYM  #twelve
BB(0,0,35,90)
TITLE 10 -7  #twelve
MODEL 6000
REC(5,5,25,80)
PIN(0,40,0.00,0.00)clk1
PIN(0,30,0.00,0.00)in1
PIN(0,20,0.00,0.00)in2
PIN(0,10,0.00,0.00)in3
PIN(35,10,2.00,1.00)digit23
PIN(35,20,2.00,1.00)digit22
PIN(35,30,2.00,1.00)digit21
PIN(35,40,2.00,1.00)digit20
PIN(35,50,2.00,1.00)digit13
PIN(35,60,2.00,1.00)digit12
PIN(35,70,2.00,1.00)digit11
PIN(35,80,2.00,1.00)digit10
LIG(0,40,5,40)
LIG(0,30,5,30)
LIG(0,20,5,20)
LIG(0,10,5,10)
LIG(30,10,35,10)
LIG(30,20,35,20)
LIG(30,30,35,30)
LIG(30,40,35,40)
LIG(30,50,35,50)
LIG(30,60,35,60)
LIG(30,70,35,70)
LIG(30,80,35,80)
LIG(5,5,5,85)
LIG(5,5,30,5)
LIG(30,5,30,85)
LIG(30,85,5,85)
VLG module twelve( clk1,in1,in2,in3,digit23,digit22,digit21,digit20,
VLG  digit13,digit12,digit11,digit10);
VLG  input clk1,in1,in2,in3;
VLG  output digit23,digit22,digit21,digit20,digit13,digit12,digit11,digit10;
VLG  wire w2,w3,w4,w6,w7,w10,w11,w12;
VLG  wire w14,w15,w16,w17,w18,w20,w22,w25;
VLG  wire w26,w27,w28,w29,w30,w31,w32,w33;
VLG  wire w34,w36,w37,w38,w39,w40,w41;
VLG  xor #(16) xor2_1(w4,w2,w3);
VLG  not #(10) inv_2(w6,digit13);
VLG  dreg #(12) dreg_3(digit13,w10,w7,in2,clk1);
VLG  and #(16) and2_4(w12,w3,w11);
VLG  and #(23) and2_5(w15,digit11,w14);
VLG  and #(16) and2_6(w18,w16,w17);
VLG  dreg #(12) dreg_7(digit20,w20,w18,in2,clk1);
VLG  and #(37) and2_8(w3,in3,w22);
VLG  xor #(16) xor2_9(w25,digit10,in1);
VLG  dreg #(12) dreg_10(digit10,w27,w26,in2,clk1);
VLG  and #(16) and2_11(w26,w4,w25);
VLG  not #(17) inv_12(w28,w22);
VLG  and #(9) and2_13(w30,digit13,w29);
VLG  dreg #(12) dreg_14(digit11,w31,w12,in2,clk1);
VLG  xor #(16) xor2_15(w17,digit20,w28);
VLG  xor #(23) xor2_16(w22,w2,w32);
VLG  xor #(16) xor2_17(w11,digit11,w14);
VLG  nand #(13) nand3_18(w34,w33,digit20,w28);
VLG  and #(16) and2_19(w16,in3,w34);
VLG  nand #(13) nand3_20(w32,digit13,digit10,in1);
VLG  and #(23) and2_21(w29,digit12,w15);
VLG  dreg #(12) dreg_22(digit12,w37,w36,in2,clk1);
VLG  and #(16) and2_23(w36,w3,w38);
VLG  xor #(16) xor2_24(w38,digit12,w15);
VLG  and #(23) and2_25(w14,digit10,in1);
VLG  xor #(16) xor2_26(w39,digit13,w29);
VLG  and #(16) and2_27(w7,w3,w39);
VLG  and #(23) and4_28(w33,w40,digit11,w6,w41);
VLG  not #(10) inv_29(w41,digit12);
VLG  not #(10) inv_30(w40,digit10);
VLG  and #(23) and2_31(w2,digit20,w33);
VLG endmodule
FSYM
