DSCH3
VERSION 11/5/2016 7:54:02 PM
BB(-239,-100,720,425)
SYM  #inv
BB(-30,405,5,425)
TITLE -15 415  #inv_1
MODEL 101
PROP                                                                                                                                    
REC(30,270,0,0, )
VIS 0
PIN(-30,415,0.000,0.000)in
PIN(5,415,0.030,0.070)out
LIG(-30,415,-20,415)
LIG(-20,405,-20,425)
LIG(-20,405,-5,415)
LIG(-20,425,-5,415)
LIG(-3,415,-3,415)
LIG(-1,415,5,415)
VLG          not not1(out,in);
FSYM
SYM  #digit
BB(530,80,555,115)
TITLE 530 112  #digit4
MODEL 89
PROP                                                                                                                                    
REC(535,85,15,21,r)
VIS 4
PIN(535,115,0.000,0.000)digit1
PIN(540,115,0.000,0.000)digit2
PIN(545,115,0.000,0.000)digit3
PIN(550,115,0.000,0.000)digit4
LIG(530,80,530,110)
LIG(555,80,530,80)
LIG(555,110,555,80)
LIG(530,110,555,110)
LIG(535,110,535,115)
LIG(540,110,540,115)
LIG(545,110,545,115)
LIG(550,110,550,115)
FSYM
SYM  #digit
BB(695,80,720,115)
TITLE 695 112  #digit6
MODEL 89
PROP                                                                                                                                    
REC(700,85,15,21,r)
VIS 4
PIN(700,115,0.000,0.000)digit1
PIN(705,115,0.000,0.000)digit2
PIN(710,115,0.000,0.000)digit3
PIN(715,115,0.000,0.000)digit4
LIG(695,80,695,110)
LIG(720,80,695,80)
LIG(720,110,720,80)
LIG(695,110,720,110)
LIG(700,110,700,115)
LIG(705,110,705,115)
LIG(710,110,710,115)
LIG(715,110,715,115)
FSYM
SYM  #digit
BB(660,80,685,115)
TITLE 660 112  #digit5
MODEL 89
PROP                                                                                                                                    
REC(665,85,15,21,r)
VIS 4
PIN(665,115,0.000,0.000)digit1
PIN(670,115,0.000,0.000)digit2
PIN(675,115,0.000,0.000)digit3
PIN(680,115,0.000,0.000)digit4
LIG(660,80,660,110)
LIG(685,80,660,80)
LIG(685,110,685,80)
LIG(660,110,685,110)
LIG(665,110,665,115)
LIG(670,110,670,115)
LIG(675,110,675,115)
LIG(680,110,680,115)
FSYM
SYM  #nine
BB(590,130,635,220)
TITLE 600 123  #nine
MODEL 6000
PROP                                                                                                                                    
REC(595,135,35,80,r)
VIS 5
PIN(590,170,0.000,0.000)clk1
PIN(590,160,0.000,0.000)in1
PIN(590,150,0.000,0.000)in2
PIN(590,140,0.000,0.000)in3
PIN(635,170,0.060,0.350)digit22
PIN(635,180,0.060,0.280)digit21
PIN(635,190,0.060,0.350)digit20
PIN(635,140,0.060,0.070)out1
PIN(635,210,0.060,0.350)digit1
PIN(635,200,0.060,0.280)digit2
PIN(635,160,0.060,0.280)digit3
PIN(635,150,0.060,0.350)digit4
LIG(590,170,595,170)
LIG(590,160,595,160)
LIG(590,150,595,150)
LIG(590,140,595,140)
LIG(630,170,635,170)
LIG(630,180,635,180)
LIG(630,190,635,190)
LIG(630,140,635,140)
LIG(630,210,635,210)
LIG(630,200,635,200)
LIG(630,160,635,160)
LIG(630,150,635,150)
LIG(595,135,595,215)
LIG(595,135,630,135)
LIG(630,135,630,215)
LIG(630,215,595,215)
VLG      module nine( clk1,in1,in2,in3,digit22,digit21,digit20,out1,
VLG       digit1,digit2,digit3,digit4);
VLG       input clk1,in1,in2,in3;
VLG       output digit22,digit21,digit20,out1,digit1,digit2,digit3,digit4;
VLG       wire w2,w5,w6,w7,w8,w11,w12,w13;
VLG       wire w14,w16,w18,w19,w22,w23,w24,w27;
VLG       wire w28,w29,w30,w31,w34,w35,w36,w37;
VLG       wire w38,w39,w41,w42,w43,w44,w45,w46;
VLG       wire w47;
VLG       not #(10) inv_1(out1,w2);
VLG       xor #(16) xor2_2(w6,digit21,w5);
VLG       and #(16) and2_3(w8,w7,w6);
VLG       dreg #(12) dreg_4(digit21,w11,w8,in2,clk1);
VLG       and #(23) and2_5(w12,digit21,w5);
VLG       and #(16) and2_6(w14,w7,w13);
VLG       dreg #(12) dreg_7(digit20,w16,w14,in2,clk1);
VLG       and #(37) and2_8(w19,in3,w18);
VLG       xor #(16) xor2_9(w22,digit4,in1);
VLG       dreg #(12) dreg_10(digit4,w24,w23,in2,clk1);
VLG       and #(16) and2_11(w23,w19,w22);
VLG       and #(23) and2_12(w5,digit20,w27);
VLG       xor #(16) xor2_13(w28,digit22,w12);
VLG       and #(16) and2_14(w29,w7,w28);
VLG       xor #(16) xor2_15(w13,digit20,w27);
VLG       dreg #(12) dreg_16(digit22,w30,w29,in2,clk1);
VLG       and #(9) and2_17(w31,digit22,w12);
VLG       nand #(20) nand3_18(w2,digit22,digit20,w27);
VLG       and #(30) and2_19(w7,in3,w2);
VLG       nand #(20) nand3_20(w18,digit1,digit4,in1);
VLG       and #(23) and2_21(w35,digit2,w34);
VLG       dreg #(12) dreg_22(digit2,w37,w36,in2,clk1);
VLG       and #(16) and2_23(w36,w19,w38);
VLG       xor #(16) xor2_24(w38,digit2,w34);
VLG       and #(23) and2_25(w39,digit4,in1);
VLG       xor #(16) xor2_26(w41,digit1,w35);
VLG       and #(16) and2_27(w42,w19,w41);
VLG       dreg #(12) dreg_28(digit1,w43,w42,in2,clk1);
VLG       and #(9) and2_29(w44,digit1,w35);
VLG       and #(23) and2_30(w34,digit3,w39);
VLG       dreg #(12) dreg_31(digit3,w46,w45,in2,clk1);
VLG       and #(16) and2_32(w45,w19,w47);
VLG       xor #(16) xor2_33(w47,digit3,w39);
VLG       not #(24) inv_34(w27,w18);
VLG      endmodule
FSYM
SYM  #and2
BB(-105,295,-70,315)
TITLE -93 306  #and2_6
MODEL 402
PROP                                                                                                                                    
REC(40,270,0,0, )
VIS 0
PIN(-105,310,0.000,0.000)b
PIN(-105,300,0.000,0.000)a
PIN(-70,305,0.090,0.070)s
LIG(-105,310,-97,310)
LIG(-97,295,-97,315)
LIG(-77,305,-70,305)
LIG(-78,307,-81,311)
LIG(-77,305,-78,307)
LIG(-78,303,-77,305)
LIG(-81,299,-78,303)
LIG(-86,296,-81,299)
LIG(-81,311,-86,314)
LIG(-86,314,-97,315)
LIG(-97,295,-86,296)
LIG(-105,300,-97,300)
VLG          and and2(out,a,b);
FSYM
SYM  #dreg
BB(-70,300,-40,325)
TITLE -58 308  #dreg_7
MODEL 860
PROP                                                                                                                                    
REC(-95,290,0,0,r)
VIS 5
PIN(-70,305,0.000,0.000)D
PIN(-70,315,0.000,0.000)RST
PIN(-55,325,0.000,0.000)H
PIN(-40,315,0.120,0.420)Q
PIN(-40,305,0.120,0.000)nQ
LIG(-70,315,-65,315)
LIG(-70,305,-65,305)
LIG(-55,325,-55,324)
LIG(-55,322,-55,322)
LIG(-45,315,-40,315)
LIG(-45,305,-40,305)
LIG(-45,320,-65,320)
LIG(-45,300,-45,320)
LIG(-65,300,-45,300)
LIG(-65,320,-65,300)
LIG(-56,320,-55,318)
LIG(-55,318,-54,320)
VLG             module dreg(D,RST,H,Q,nQ);
VLG              input D,RST,H;
VLG              output Q,nQ;
VLG             endmodule
FSYM
SYM  #and2
BB(-145,95,-110,115)
TITLE -133 106  #and2_8
MODEL 402
PROP                                                                                                                                    
REC(5,5,0,0, )
VIS 0
PIN(-145,110,0.000,0.000)b
PIN(-145,100,0.000,0.000)a
PIN(-110,105,0.090,0.280)s
LIG(-145,110,-137,110)
LIG(-137,95,-137,115)
LIG(-117,105,-110,105)
LIG(-118,107,-121,111)
LIG(-117,105,-118,107)
LIG(-118,103,-117,105)
LIG(-121,99,-118,103)
LIG(-126,96,-121,99)
LIG(-121,111,-126,114)
LIG(-126,114,-137,115)
LIG(-137,95,-126,96)
LIG(-145,100,-137,100)
VLG          and and2(out,a,b);
FSYM
SYM  #xor2
BB(-170,20,-135,40)
TITLE -153 30  #xor2_9
MODEL 602
PROP                                                                                                                                    
REC(10,-5,0,0, )
VIS 0
PIN(-170,25,0.000,0.000)a
PIN(-170,35,0.000,0.000)b
PIN(-135,30,0.090,0.070)out
LIG(-162,37,-166,40)
LIG(-158,37,-162,40)
LIG(-142,30,-135,30)
LIG(-143,32,-146,36)
LIG(-142,30,-143,32)
LIG(-143,28,-142,30)
LIG(-146,24,-143,28)
LIG(-151,21,-146,24)
LIG(-146,36,-151,39)
LIG(-151,39,-162,40)
LIG(-162,20,-151,21)
LIG(-156,33,-158,37)
LIG(-162,20,-158,23)
LIG(-158,23,-156,27)
LIG(-156,27,-155,30)
LIG(-155,30,-156,33)
LIG(-166,20,-162,23)
LIG(-162,23,-160,27)
LIG(-160,27,-159,30)
LIG(-159,30,-160,33)
LIG(-160,33,-162,37)
LIG(-170,25,-161,25)
LIG(-170,35,-161,35)
VLG          xor xor2(out,a,b);
FSYM
SYM  #dreg
BB(-100,30,-70,55)
TITLE -88 38  #dreg_10
MODEL 860
PROP                                                                                                                                    
REC(-125,20,0,0,r)
VIS 5
PIN(-100,35,0.000,0.000)D
PIN(-100,45,0.000,0.000)RST
PIN(-85,55,0.000,0.000)H
PIN(-70,45,0.120,0.350)Q
PIN(-70,35,0.120,0.000)nQ
LIG(-100,45,-95,45)
LIG(-100,35,-95,35)
LIG(-85,55,-85,54)
LIG(-85,52,-85,52)
LIG(-75,45,-70,45)
LIG(-75,35,-70,35)
LIG(-75,50,-95,50)
LIG(-75,30,-75,50)
LIG(-95,30,-75,30)
LIG(-95,50,-95,30)
LIG(-86,50,-85,48)
LIG(-85,48,-84,50)
VLG             module dreg(D,RST,H,Q,nQ);
VLG              input D,RST,H;
VLG              output Q,nQ;
VLG             endmodule
FSYM
SYM  #and2
BB(-135,25,-100,45)
TITLE -123 36  #and2_11
MODEL 402
PROP                                                                                                                                    
REC(10,0,0,0, )
VIS 0
PIN(-135,40,0.000,0.000)b
PIN(-135,30,0.000,0.000)a
PIN(-100,35,0.090,0.070)s
LIG(-135,40,-127,40)
LIG(-127,25,-127,45)
LIG(-107,35,-100,35)
LIG(-108,37,-111,41)
LIG(-107,35,-108,37)
LIG(-108,33,-107,35)
LIG(-111,29,-108,33)
LIG(-116,26,-111,29)
LIG(-111,41,-116,44)
LIG(-116,44,-127,45)
LIG(-127,25,-116,26)
LIG(-135,30,-127,30)
VLG          and and2(out,a,b);
FSYM
SYM  #digit
BB(20,170,45,205)
TITLE 20 202  #digit2
MODEL 89
PROP                                                                                                                                    
REC(25,175,15,21,r)
VIS 4
PIN(25,205,0.000,0.000)digit23
PIN(30,205,0.000,0.000)digit22
PIN(35,205,0.000,0.000)digit21
PIN(40,205,0.000,0.000)digit20
LIG(20,170,20,200)
LIG(45,170,20,170)
LIG(45,200,45,170)
LIG(20,200,45,200)
LIG(25,200,25,205)
LIG(30,200,30,205)
LIG(35,200,35,205)
LIG(40,200,40,205)
FSYM
SYM  #and2
BB(-25,270,10,290)
TITLE -13 281  #and2_12
MODEL 402
PROP                                                                                                                                    
REC(75,270,0,0, )
VIS 0
PIN(-25,285,0.000,0.000)b
PIN(-25,275,0.000,0.000)a
PIN(10,280,0.090,0.000)s
LIG(-25,285,-17,285)
LIG(-17,270,-17,290)
LIG(3,280,10,280)
LIG(2,282,-1,286)
LIG(3,280,2,282)
LIG(2,278,3,280)
LIG(-1,274,2,278)
LIG(-6,271,-1,274)
LIG(-1,286,-6,289)
LIG(-6,289,-17,290)
LIG(-17,270,-6,271)
LIG(-25,275,-17,275)
VLG          and and2(out,a,b);
FSYM
SYM  #clock
BB(450,167,465,173)
TITLE 455 170  #clock2
MODEL 69
PROP   20.00 20.00                                                                                                                                
REC(452,168,6,4,r)
VIS 1
PIN(465,170,1.500,0.980)clk2
LIG(460,170,465,170)
LIG(455,168,453,168)
LIG(459,168,457,168)
LIG(460,167,460,173)
LIG(450,173,450,167)
LIG(455,172,455,168)
LIG(457,168,457,172)
LIG(457,172,455,172)
LIG(453,172,451,172)
LIG(453,168,453,172)
LIG(460,173,450,173)
LIG(460,167,450,167)
FSYM
SYM  #button
BB(456,156,465,164)
TITLE 460 160  #button6
MODEL 59
PROP                                                                                                                                    
REC(457,157,6,6,r)
VIS 1
PIN(465,160,0.000,0.000)in6
LIG(464,160,465,160)
LIG(456,164,456,156)
LIG(464,164,456,164)
LIG(464,156,464,164)
LIG(456,156,464,156)
LIG(457,163,457,157)
LIG(463,163,457,163)
LIG(463,157,463,163)
LIG(457,157,463,157)
FSYM
SYM  #xor2
BB(-140,290,-105,310)
TITLE -123 300  #xor2_15
MODEL 602
PROP                                                                                                                                    
REC(40,265,0,0, )
VIS 0
PIN(-140,295,0.000,0.000)a
PIN(-140,305,0.000,0.000)b
PIN(-105,300,0.090,0.070)out
LIG(-132,307,-136,310)
LIG(-128,307,-132,310)
LIG(-112,300,-105,300)
LIG(-113,302,-116,306)
LIG(-112,300,-113,302)
LIG(-113,298,-112,300)
LIG(-116,294,-113,298)
LIG(-121,291,-116,294)
LIG(-116,306,-121,309)
LIG(-121,309,-132,310)
LIG(-132,290,-121,291)
LIG(-126,303,-128,307)
LIG(-132,290,-128,293)
LIG(-128,293,-126,297)
LIG(-126,297,-125,300)
LIG(-125,300,-126,303)
LIG(-136,290,-132,293)
LIG(-132,293,-130,297)
LIG(-130,297,-129,300)
LIG(-129,300,-130,303)
LIG(-130,303,-132,307)
LIG(-140,295,-131,295)
LIG(-140,305,-131,305)
VLG          xor xor2(out,a,b);
FSYM
SYM  #button
BB(456,146,465,154)
TITLE 460 150  #button5
MODEL 59
PROP                                                                                                                                    
REC(457,147,6,6,r)
VIS 1
PIN(465,150,0.000,0.000)in5
LIG(464,150,465,150)
LIG(456,154,456,146)
LIG(464,154,456,154)
LIG(464,146,464,154)
LIG(456,146,464,146)
LIG(457,153,457,147)
LIG(463,153,457,153)
LIG(463,147,463,153)
LIG(457,147,463,147)
FSYM
SYM  #button
BB(456,136,465,144)
TITLE 460 140  #button4
MODEL 59
PROP                                                                                                                                    
REC(457,137,6,6,r)
VIS 1
PIN(465,140,0.000,0.000)in4
LIG(464,140,465,140)
LIG(456,144,456,136)
LIG(464,144,456,144)
LIG(464,136,464,144)
LIG(456,136,464,136)
LIG(457,143,457,137)
LIG(463,143,457,143)
LIG(463,137,463,143)
LIG(457,137,463,137)
FSYM
SYM  #light
BB(8,400,14,414)
TITLE 10 414  #light1
MODEL 49
PROP                                                                                                                                    
REC(9,401,4,4,r)
VIS 1
PIN(10,415,0.000,0.000)out1
LIG(13,406,13,401)
LIG(13,401,12,400)
LIG(9,401,9,406)
LIG(12,411,12,408)
LIG(11,411,14,411)
LIG(11,413,13,411)
LIG(12,413,14,411)
LIG(8,408,14,408)
LIG(10,408,10,415)
LIG(8,406,8,408)
LIG(14,406,8,406)
LIG(14,408,14,406)
LIG(10,400,9,401)
LIG(12,400,10,400)
FSYM
SYM  #nand3
BB(-40,370,-5,400)
TITLE -20 385  #nand3_18
MODEL 203
PROP                                                                                                                                    
REC(-5,370,0,0,P)
VIS 0
PIN(-5,375,0.000,0.000)a
PIN(-5,385,0.000,0.000)b
PIN(-5,395,0.000,0.000)c
PIN(-45,385,0.060,0.140)s
LIG(-5,395,-15,395)
LIG(-5,385,-15,385)
LIG(-5,375,-15,375)
LIG(-15,385,-15,400)
LIG(-30,396,-25,399)
LIG(-34,388,-30,396)
LIG(-15,370,-15,385)
LIG(-15,370,-25,371)
LIG(-35,385,-34,388)
LIG(-34,382,-35,385)
LIG(-15,400,-25,399)
LIG(-30,374,-34,382)
LIG(-25,371,-30,374)
LIG(-39,385,-45,385)
LIG(-37,385,-37,385)
VLG          nand nand3(out,a,b,c);
FSYM
SYM  #and2
BB(-115,365,-80,385)
TITLE -103 376  #and2_19
MODEL 402
PROP                                                                                                                                    
REC(35,275,0,0, )
VIS 0
PIN(-115,380,0.000,0.000)b
PIN(-115,370,0.000,0.000)a
PIN(-80,375,0.090,0.070)s
LIG(-115,380,-107,380)
LIG(-107,365,-107,385)
LIG(-87,375,-80,375)
LIG(-88,377,-91,381)
LIG(-87,375,-88,377)
LIG(-88,373,-87,375)
LIG(-91,369,-88,373)
LIG(-96,366,-91,369)
LIG(-91,381,-96,384)
LIG(-96,384,-107,385)
LIG(-107,365,-96,366)
LIG(-115,370,-107,370)
VLG          and and2(out,a,b);
FSYM
SYM  #clock
BB(-205,52,-190,58)
TITLE -200 55  #clock1
MODEL 69
PROP   10.000 10.000                                                                                                                                
REC(-203,53,6,4,r)
VIS 1
PIN(-190,55,1.500,0.350)clk1
LIG(-195,55,-190,55)
LIG(-200,53,-202,53)
LIG(-196,53,-198,53)
LIG(-195,52,-195,58)
LIG(-205,58,-205,52)
LIG(-200,57,-200,53)
LIG(-198,53,-198,57)
LIG(-198,57,-200,57)
LIG(-202,57,-204,57)
LIG(-202,53,-202,57)
LIG(-195,58,-205,58)
LIG(-195,52,-205,52)
FSYM
SYM  #nand3
BB(-70,100,-35,130)
TITLE -50 115  #nand3_20
MODEL 203
PROP                                                                                                                                    
REC(-35,100,0,0,P)
VIS 0
PIN(-35,105,0.000,0.000)a
PIN(-35,115,0.000,0.000)b
PIN(-35,125,0.000,0.000)c
PIN(-75,115,0.060,0.140)s
LIG(-35,125,-45,125)
LIG(-35,115,-45,115)
LIG(-35,105,-45,105)
LIG(-45,115,-45,130)
LIG(-60,126,-55,129)
LIG(-64,118,-60,126)
LIG(-45,100,-45,115)
LIG(-45,100,-55,101)
LIG(-65,115,-64,118)
LIG(-64,112,-65,115)
LIG(-45,130,-55,129)
LIG(-60,104,-64,112)
LIG(-55,101,-60,104)
LIG(-69,115,-75,115)
LIG(-67,115,-67,115)
VLG          nand nand3(out,a,b,c);
FSYM
SYM  #button
BB(-239,76,-230,84)
TITLE -235 80  #button1
MODEL 59
PROP                                                                                                                                    
REC(-238,77,6,6,r)
VIS 1
PIN(-230,80,0.000,0.000)in1
LIG(-231,80,-230,80)
LIG(-239,84,-239,76)
LIG(-231,84,-239,84)
LIG(-231,76,-231,84)
LIG(-239,76,-231,76)
LIG(-238,83,-238,77)
LIG(-232,83,-238,83)
LIG(-232,77,-232,83)
LIG(-238,77,-232,77)
FSYM
SYM  #button
BB(-219,91,-210,99)
TITLE -215 95  #button2
MODEL 59
PROP                                                                                                                                    
REC(-218,92,6,6,r)
VIS 1
PIN(-210,95,0.000,0.000)in2
LIG(-211,95,-210,95)
LIG(-219,99,-219,91)
LIG(-211,99,-219,99)
LIG(-211,91,-211,99)
LIG(-219,91,-211,91)
LIG(-218,98,-218,92)
LIG(-212,98,-218,98)
LIG(-212,92,-212,98)
LIG(-218,92,-212,92)
FSYM
SYM  #button
BB(-204,106,-195,114)
TITLE -200 110  #button3
MODEL 59
PROP                                                                                                                                    
REC(-203,107,6,6,r)
VIS 1
PIN(-195,110,0.000,0.000)in3
LIG(-196,110,-195,110)
LIG(-204,114,-204,106)
LIG(-196,114,-204,114)
LIG(-196,106,-196,114)
LIG(-204,106,-196,106)
LIG(-203,113,-203,107)
LIG(-197,113,-203,113)
LIG(-197,107,-197,113)
LIG(-203,107,-197,107)
FSYM
SYM  #and2
BB(325,5,360,25)
TITLE 337 16  #and2_21
MODEL 402
PROP                                                                                                                                    
REC(425,5,0,0, )
VIS 0
PIN(325,20,0.000,0.000)b
PIN(325,10,0.000,0.000)a
PIN(360,15,0.090,0.140)s
LIG(325,20,333,20)
LIG(333,5,333,25)
LIG(353,15,360,15)
LIG(352,17,349,21)
LIG(353,15,352,17)
LIG(352,13,353,15)
LIG(349,9,352,13)
LIG(344,6,349,9)
LIG(349,21,344,24)
LIG(344,24,333,25)
LIG(333,5,344,6)
LIG(325,10,333,10)
VLG          and and2(out,a,b);
FSYM
SYM  #dreg
BB(280,35,310,60)
TITLE 292 43  #dreg_22
MODEL 860
PROP                                                                                                                                    
REC(255,25,0,0,r)
VIS 5
PIN(280,40,0.000,0.000)D
PIN(280,50,0.000,0.000)RST
PIN(295,60,0.000,0.000)H
PIN(310,50,0.120,0.210)Q
PIN(310,40,0.120,0.000)nQ
LIG(280,50,285,50)
LIG(280,40,285,40)
LIG(295,60,295,59)
LIG(295,57,295,57)
LIG(305,50,310,50)
LIG(305,40,310,40)
LIG(305,55,285,55)
LIG(305,35,305,55)
LIG(285,35,305,35)
LIG(285,55,285,35)
LIG(294,55,295,53)
LIG(295,53,296,55)
VLG             module dreg(D,RST,H,Q,nQ);
VLG              input D,RST,H;
VLG              output Q,nQ;
VLG             endmodule
FSYM
SYM  #and2
BB(245,30,280,50)
TITLE 257 41  #and2_23
MODEL 402
PROP                                                                                                                                    
REC(390,5,0,0, )
VIS 0
PIN(245,45,0.000,0.000)b
PIN(245,35,0.000,0.000)a
PIN(280,40,0.090,0.070)s
LIG(245,45,253,45)
LIG(253,30,253,50)
LIG(273,40,280,40)
LIG(272,42,269,46)
LIG(273,40,272,42)
LIG(272,38,273,40)
LIG(269,34,272,38)
LIG(264,31,269,34)
LIG(269,46,264,49)
LIG(264,49,253,50)
LIG(253,30,264,31)
LIG(245,35,253,35)
VLG          and and2(out,a,b);
FSYM
SYM  #xor2
BB(210,25,245,45)
TITLE 227 35  #xor2_24
MODEL 602
PROP                                                                                                                                    
REC(390,0,0,0, )
VIS 0
PIN(210,30,0.000,0.000)a
PIN(210,40,0.000,0.000)b
PIN(245,35,0.090,0.070)out
LIG(218,42,214,45)
LIG(222,42,218,45)
LIG(238,35,245,35)
LIG(237,37,234,41)
LIG(238,35,237,37)
LIG(237,33,238,35)
LIG(234,29,237,33)
LIG(229,26,234,29)
LIG(234,41,229,44)
LIG(229,44,218,45)
LIG(218,25,229,26)
LIG(224,38,222,42)
LIG(218,25,222,28)
LIG(222,28,224,32)
LIG(224,32,225,35)
LIG(225,35,224,38)
LIG(214,25,218,28)
LIG(218,28,220,32)
LIG(220,32,221,35)
LIG(221,35,220,38)
LIG(220,38,218,42)
LIG(210,30,219,30)
LIG(210,40,219,40)
VLG          xor xor2(out,a,b);
FSYM
SYM  #and2
BB(-55,0,-20,20)
TITLE -43 11  #and2_25
MODEL 402
PROP                                                                                                                                    
REC(45,0,0,0, )
VIS 0
PIN(-55,15,0.000,0.000)b
PIN(-55,5,0.000,0.000)a
PIN(-20,10,0.090,0.140)s
LIG(-55,15,-47,15)
LIG(-47,0,-47,20)
LIG(-27,10,-20,10)
LIG(-28,12,-31,16)
LIG(-27,10,-28,12)
LIG(-28,8,-27,10)
LIG(-31,4,-28,8)
LIG(-36,1,-31,4)
LIG(-31,16,-36,19)
LIG(-36,19,-47,20)
LIG(-47,0,-36,1)
LIG(-55,5,-47,5)
VLG          and and2(out,a,b);
FSYM
SYM  #digit
BB(-10,-100,15,-65)
TITLE -10 -68  #digit1
MODEL 89
PROP                                                                                                                                    
REC(-5,-95,15,21,r)
VIS 4
PIN(-5,-65,0.000,0.000)digit1
PIN(0,-65,0.000,0.000)digit2
PIN(5,-65,0.000,0.000)digit3
PIN(10,-65,0.000,0.000)digit4
LIG(-10,-100,-10,-70)
LIG(15,-100,-10,-100)
LIG(15,-70,15,-100)
LIG(-10,-70,15,-70)
LIG(-5,-70,-5,-65)
LIG(0,-70,0,-65)
LIG(5,-70,5,-65)
LIG(10,-70,10,-65)
FSYM
SYM  #xor2
BB(200,125,235,145)
TITLE 217 135  #xor2_26
MODEL 602
PROP                                                                                                                                    
REC(380,100,0,0, )
VIS 0
PIN(200,130,0.000,0.000)a
PIN(200,140,0.000,0.000)b
PIN(235,135,0.090,0.070)out
LIG(208,142,204,145)
LIG(212,142,208,145)
LIG(228,135,235,135)
LIG(227,137,224,141)
LIG(228,135,227,137)
LIG(227,133,228,135)
LIG(224,129,227,133)
LIG(219,126,224,129)
LIG(224,141,219,144)
LIG(219,144,208,145)
LIG(208,125,219,126)
LIG(214,138,212,142)
LIG(208,125,212,128)
LIG(212,128,214,132)
LIG(214,132,215,135)
LIG(215,135,214,138)
LIG(204,125,208,128)
LIG(208,128,210,132)
LIG(210,132,211,135)
LIG(211,135,210,138)
LIG(210,138,208,142)
LIG(200,130,209,130)
LIG(200,140,209,140)
VLG          xor xor2(out,a,b);
FSYM
SYM  #and2
BB(235,130,270,150)
TITLE 247 141  #and2_27
MODEL 402
PROP                                                                                                                                    
REC(380,105,0,0, )
VIS 0
PIN(235,145,0.000,0.000)b
PIN(235,135,0.000,0.000)a
PIN(270,140,0.090,0.070)s
LIG(235,145,243,145)
LIG(243,130,243,150)
LIG(263,140,270,140)
LIG(262,142,259,146)
LIG(263,140,262,142)
LIG(262,138,263,140)
LIG(259,134,262,138)
LIG(254,131,259,134)
LIG(259,146,254,149)
LIG(254,149,243,150)
LIG(243,130,254,131)
LIG(235,135,243,135)
VLG          and and2(out,a,b);
FSYM
SYM  #dreg
BB(270,135,300,160)
TITLE 282 143  #dreg_28
MODEL 860
PROP                                                                                                                                    
REC(245,125,0,0,r)
VIS 5
PIN(270,140,0.000,0.000)D
PIN(270,150,0.000,0.000)RST
PIN(285,160,0.000,0.000)H
PIN(300,150,0.120,0.280)Q
PIN(300,140,0.120,0.000)nQ
LIG(270,150,275,150)
LIG(270,140,275,140)
LIG(285,160,285,159)
LIG(285,157,285,157)
LIG(295,150,300,150)
LIG(295,140,300,140)
LIG(295,155,275,155)
LIG(295,135,295,155)
LIG(275,135,295,135)
LIG(275,155,275,135)
LIG(284,155,285,153)
LIG(285,153,286,155)
VLG             module dreg(D,RST,H,Q,nQ);
VLG              input D,RST,H;
VLG              output Q,nQ;
VLG             endmodule
FSYM
SYM  #and2
BB(315,105,350,125)
TITLE 327 116  #and2_29
MODEL 402
PROP                                                                                                                                    
REC(415,105,0,0, )
VIS 0
PIN(315,120,0.000,0.000)b
PIN(315,110,0.000,0.000)a
PIN(350,115,0.090,0.000)s
LIG(315,120,323,120)
LIG(323,105,323,125)
LIG(343,115,350,115)
LIG(342,117,339,121)
LIG(343,115,342,117)
LIG(342,113,343,115)
LIG(339,109,342,113)
LIG(334,106,339,109)
LIG(339,121,334,124)
LIG(334,124,323,125)
LIG(323,105,334,106)
LIG(315,110,323,110)
VLG          and and2(out,a,b);
FSYM
SYM  #and2
BB(135,5,170,25)
TITLE 147 16  #and2_30
MODEL 402
PROP                                                                                                                                    
REC(235,5,0,0, )
VIS 0
PIN(135,20,0.000,0.000)b
PIN(135,10,0.000,0.000)a
PIN(170,15,0.090,0.140)s
LIG(135,20,143,20)
LIG(143,5,143,25)
LIG(163,15,170,15)
LIG(162,17,159,21)
LIG(163,15,162,17)
LIG(162,13,163,15)
LIG(159,9,162,13)
LIG(154,6,159,9)
LIG(159,21,154,24)
LIG(154,24,143,25)
LIG(143,5,154,6)
LIG(135,10,143,10)
VLG          and and2(out,a,b);
FSYM
SYM  #dreg
BB(90,35,120,60)
TITLE 102 43  #dreg_31
MODEL 860
PROP                                                                                                                                    
REC(65,25,0,0,r)
VIS 5
PIN(90,40,0.000,0.000)D
PIN(90,50,0.000,0.000)RST
PIN(105,60,0.000,0.000)H
PIN(120,50,0.120,0.350)Q
PIN(120,40,0.120,0.000)nQ
LIG(90,50,95,50)
LIG(90,40,95,40)
LIG(105,60,105,59)
LIG(105,57,105,57)
LIG(115,50,120,50)
LIG(115,40,120,40)
LIG(115,55,95,55)
LIG(115,35,115,55)
LIG(95,35,115,35)
LIG(95,55,95,35)
LIG(104,55,105,53)
LIG(105,53,106,55)
VLG             module dreg(D,RST,H,Q,nQ);
VLG              input D,RST,H;
VLG              output Q,nQ;
VLG             endmodule
FSYM
SYM  #and2
BB(55,30,90,50)
TITLE 67 41  #and2_32
MODEL 402
PROP                                                                                                                                    
REC(200,5,0,0, )
VIS 0
PIN(55,45,0.000,0.000)b
PIN(55,35,0.000,0.000)a
PIN(90,40,0.090,0.070)s
LIG(55,45,63,45)
LIG(63,30,63,50)
LIG(83,40,90,40)
LIG(82,42,79,46)
LIG(83,40,82,42)
LIG(82,38,83,40)
LIG(79,34,82,38)
LIG(74,31,79,34)
LIG(79,46,74,49)
LIG(74,49,63,50)
LIG(63,30,74,31)
LIG(55,35,63,35)
VLG          and and2(out,a,b);
FSYM
SYM  #xor2
BB(20,25,55,45)
TITLE 37 35  #xor2_33
MODEL 602
PROP                                                                                                                                    
REC(200,0,0,0, )
VIS 0
PIN(20,30,0.000,0.000)a
PIN(20,40,0.000,0.000)b
PIN(55,35,0.090,0.070)out
LIG(28,42,24,45)
LIG(32,42,28,45)
LIG(48,35,55,35)
LIG(47,37,44,41)
LIG(48,35,47,37)
LIG(47,33,48,35)
LIG(44,29,47,33)
LIG(39,26,44,29)
LIG(44,41,39,44)
LIG(39,44,28,45)
LIG(28,25,39,26)
LIG(34,38,32,42)
LIG(28,25,32,28)
LIG(32,28,34,32)
LIG(34,32,35,35)
LIG(35,35,34,38)
LIG(24,25,28,28)
LIG(28,28,30,32)
LIG(30,32,31,35)
LIG(31,35,30,38)
LIG(30,38,28,42)
LIG(20,30,29,30)
LIG(20,40,29,40)
VLG          xor xor2(out,a,b);
FSYM
SYM  #inv
BB(-85,145,-65,180)
TITLE -75 160  #inv_34
MODEL 101
PROP                                                                                                                                    
REC(70,205,0,0, )
VIS 0
PIN(-75,145,0.000,0.000)in
PIN(-75,180,0.030,0.210)out
LIG(-75,145,-75,155)
LIG(-65,155,-85,155)
LIG(-65,155,-75,170)
LIG(-85,155,-75,170)
LIG(-75,172,-75,172)
LIG(-75,174,-75,180)
VLG          not not1(out,in);
FSYM
SYM  #nine
BB(480,130,525,220)
TITLE 490 123  #nine
MODEL 6000
PROP                                                                                                                                    
REC(485,135,35,80,r)
VIS 5
PIN(480,170,0.000,0.000)clk1
PIN(480,160,0.000,0.000)in1
PIN(480,150,0.000,0.000)in2
PIN(480,140,0.000,0.000)in3
PIN(525,170,0.060,0.350)digit22
PIN(525,180,0.060,0.280)digit21
PIN(525,190,0.060,0.350)digit20
PIN(525,140,0.060,0.210)out1
PIN(525,210,0.060,0.350)digit1
PIN(525,200,0.060,0.280)digit2
PIN(525,160,0.060,0.280)digit3
PIN(525,150,0.060,0.350)digit4
LIG(480,170,485,170)
LIG(480,160,485,160)
LIG(480,150,485,150)
LIG(480,140,485,140)
LIG(520,170,525,170)
LIG(520,180,525,180)
LIG(520,190,525,190)
LIG(520,140,525,140)
LIG(520,210,525,210)
LIG(520,200,525,200)
LIG(520,160,525,160)
LIG(520,150,525,150)
LIG(485,135,485,215)
LIG(485,135,520,135)
LIG(520,135,520,215)
LIG(520,215,485,215)
VLG      module nine( clk1,in1,in2,in3,digit22,digit21,digit20,out1,
VLG       digit1,digit2,digit3,digit4);
VLG       input clk1,in1,in2,in3;
VLG       output digit22,digit21,digit20,out1,digit1,digit2,digit3,digit4;
VLG       wire w2,w5,w6,w7,w8,w11,w12,w13;
VLG       wire w14,w16,w18,w19,w22,w23,w24,w27;
VLG       wire w28,w29,w30,w31,w34,w35,w36,w37;
VLG       wire w38,w39,w41,w42,w43,w44,w45,w46;
VLG       wire w47;
VLG       not #(10) inv_1(out1,w2);
VLG       xor #(16) xor2_2(w6,digit21,w5);
VLG       and #(16) and2_3(w8,w7,w6);
VLG       dreg #(12) dreg_4(digit21,w11,w8,in2,clk1);
VLG       and #(23) and2_5(w12,digit21,w5);
VLG       and #(16) and2_6(w14,w7,w13);
VLG       dreg #(12) dreg_7(digit20,w16,w14,in2,clk1);
VLG       and #(37) and2_8(w19,in3,w18);
VLG       xor #(16) xor2_9(w22,digit4,in1);
VLG       dreg #(12) dreg_10(digit4,w24,w23,in2,clk1);
VLG       and #(16) and2_11(w23,w19,w22);
VLG       and #(23) and2_12(w5,digit20,w27);
VLG       xor #(16) xor2_13(w28,digit22,w12);
VLG       and #(16) and2_14(w29,w7,w28);
VLG       xor #(16) xor2_15(w13,digit20,w27);
VLG       dreg #(12) dreg_16(digit22,w30,w29,in2,clk1);
VLG       and #(9) and2_17(w31,digit22,w12);
VLG       nand #(20) nand3_18(w2,digit22,digit20,w27);
VLG       and #(30) and2_19(w7,in3,w2);
VLG       nand #(20) nand3_20(w18,digit1,digit4,in1);
VLG       and #(23) and2_21(w35,digit2,w34);
VLG       dreg #(12) dreg_22(digit2,w37,w36,in2,clk1);
VLG       and #(16) and2_23(w36,w19,w38);
VLG       xor #(16) xor2_24(w38,digit2,w34);
VLG       and #(23) and2_25(w39,digit4,in1);
VLG       xor #(16) xor2_26(w41,digit1,w35);
VLG       and #(16) and2_27(w42,w19,w41);
VLG       dreg #(12) dreg_28(digit1,w43,w42,in2,clk1);
VLG       and #(9) and2_29(w44,digit1,w35);
VLG       and #(23) and2_30(w34,digit3,w39);
VLG       dreg #(12) dreg_31(digit3,w46,w45,in2,clk1);
VLG       and #(16) and2_32(w45,w19,w47);
VLG       xor #(16) xor2_33(w47,digit3,w39);
VLG       not #(24) inv_34(w27,w18);
VLG      endmodule
FSYM
SYM  #digit
BB(560,80,585,115)
TITLE 560 112  #digit3
MODEL 89
PROP                                                                                                                                    
REC(565,85,15,21,r)
VIS 4
PIN(565,115,0.000,0.000)digit1
PIN(570,115,0.000,0.000)digit2
PIN(575,115,0.000,0.000)digit3
PIN(580,115,0.000,0.000)digit4
LIG(560,80,560,110)
LIG(585,80,560,80)
LIG(585,110,585,80)
LIG(560,110,585,110)
LIG(565,110,565,115)
LIG(570,110,570,115)
LIG(575,110,575,115)
LIG(580,110,580,115)
FSYM
SYM  #and2
BB(50,115,70,150)
TITLE 61 138  #&
MODEL 402
PROP                                                                                                                                    
REC(-155,340,0,0, )
VIS 0
PIN(65,150,0.000,0.000)b
PIN(55,150,0.000,0.000)a
PIN(60,115,0.090,0.070)s
LIG(65,150,65,142)
LIG(50,142,70,142)
LIG(60,122,60,115)
LIG(62,123,66,126)
LIG(60,122,62,123)
LIG(58,123,60,122)
LIG(54,126,58,123)
LIG(51,131,54,126)
LIG(66,126,69,131)
LIG(69,131,70,142)
LIG(50,142,51,131)
LIG(55,150,55,142)
VLG   and and2(out,a,b);
FSYM
SYM  #inv
BB(90,200,110,235)
TITLE 100 220  #~
MODEL 101
PROP                                                                                                                                    
REC(-135,335,0,0, )
VIS 0
PIN(100,235,0.000,0.000)in
PIN(100,200,0.030,0.210)out
LIG(100,235,100,225)
LIG(90,225,110,225)
LIG(90,225,100,210)
LIG(110,225,100,210)
LIG(100,208,100,208)
LIG(100,206,100,200)
VLG   not not1(out,in);
FSYM
SYM  #and2
BB(80,115,100,150)
TITLE 91 138  #&
MODEL 402
PROP                                                                                                                                    
REC(-50,220,0,0, )
VIS 0
PIN(95,150,0.000,0.000)b
PIN(85,150,0.000,0.000)a
PIN(90,115,0.090,0.070)s
LIG(95,150,95,142)
LIG(80,142,100,142)
LIG(90,122,90,115)
LIG(92,123,96,126)
LIG(90,122,92,123)
LIG(88,123,90,122)
LIG(84,126,88,123)
LIG(81,131,84,126)
LIG(96,126,99,131)
LIG(99,131,100,142)
LIG(80,142,81,131)
LIG(85,150,85,142)
VLG   and and2(out,a,b);
FSYM
SYM  #and2
BB(20,115,40,150)
TITLE 31 138  #&
MODEL 402
PROP                                                                                                                                    
REC(-140,265,0,0, )
VIS 0
PIN(35,150,0.000,0.000)b
PIN(25,150,0.000,0.000)a
PIN(30,115,0.090,0.070)s
LIG(35,150,35,142)
LIG(20,142,40,142)
LIG(30,122,30,115)
LIG(32,123,36,126)
LIG(30,122,32,123)
LIG(28,123,30,122)
LIG(24,126,28,123)
LIG(21,131,24,126)
LIG(36,126,39,131)
LIG(39,131,40,142)
LIG(20,142,21,131)
LIG(25,150,25,142)
VLG   and and2(out,a,b);
FSYM
SYM  #or2
BB(40,-40,60,-5)
TITLE 50 -25  #|
MODEL 502
PROP                                                                                                                                    
REC(75,50,0,0, )
VIS 0
PIN(45,-5,0.000,0.000)a
PIN(55,-5,0.000,0.000)b
PIN(50,-40,0.090,0.070)s
LIG(55,-5,55,-18)
LIG(57,-17,60,-13)
LIG(50,-33,50,-40)
LIG(52,-32,56,-29)
LIG(50,-33,52,-32)
LIG(48,-32,50,-33)
LIG(44,-29,48,-32)
LIG(41,-24,44,-29)
LIG(56,-29,59,-24)
LIG(59,-24,60,-13)
LIG(40,-13,41,-24)
LIG(53,-19,57,-17)
LIG(40,-13,43,-17)
LIG(43,-17,47,-19)
LIG(47,-19,50,-20)
LIG(50,-20,53,-19)
LIG(45,-5,45,-18)
VLG   or or2(s,a,b);
FSYM
SYM  #and3
BB(-60,200,-25,230)
TITLE -40 215  #&
MODEL 403
PROP                                                                                                                                   
REC(-25,200,0,0,P)
VIS 0
PIN(-25,205,0.000,0.000)a
PIN(-25,215,0.000,0.000)b
PIN(-25,225,0.000,0.000)c
PIN(-65,215,0.090,0.420)s
LIG(-65,215,-55,215)
LIG(-25,225,-35,225)
LIG(-25,215,-35,215)
LIG(-25,205,-35,205)
LIG(-35,215,-35,230)
LIG(-50,226,-45,229)
LIG(-54,218,-50,226)
LIG(-35,200,-35,215)
LIG(-35,200,-45,201)
LIG(-55,215,-54,218)
LIG(-54,212,-55,215)
LIG(-35,230,-45,229)
LIG(-50,204,-54,212)
LIG(-45,201,-50,204)
VLG  and and3(s,a,b,c);
FSYM
CNC(-25 115)
CNC(40 320)
CNC(-75 275)
CNC(475 160)
CNC(470 150)
CNC(-25 285)
CNC(-175 80)
CNC(-25 315)
CNC(470 170)
CNC(325 20)
CNC(90 70)
CNC(-190 110)
CNC(-145 305)
CNC(-175 35)
CNC(130 20)
CNC(-205 95)
CNC(-100 70)
CNC(-160 55)
CNC(195 110)
CNC(315 120)
CNC(-110 65)
CNC(315 150)
CNC(-205 215)
CNC(15 40)
CNC(115 70)
CNC(130 50)
CNC(205 40)
CNC(155 65)
CNC(55 65)
CNC(0 95)
CNC(205 40)
CNC(180 60)
CNC(10 50)
CNC(130 20)
CNC(40 235)
CNC(65 160)
CNC(325 50)
CNC(95 160)
CNC(130 20)
CNC(130 20)
CNC(130 20)
CNC(85 190)
CNC(40 225)
CNC(-65 15)
CNC(-30 45)
LIG(-145,350,-140,350)
LIG(635,180,675,180)
LIG(-65,385,-45,385)
LIG(-65,360,-65,385)
LIG(-105,335,-80,335)
LIG(-105,310,-105,335)
LIG(-35,135,-170,135)
LIG(-140,405,-140,350)
LIG(-120,365,-120,340)
LIG(-70,315,-70,340)
LIG(40,225,40,235)
LIG(680,190,680,115)
LIG(635,190,680,190)
LIG(-100,70,90,70)
LIG(-85,55,-85,60)
LIG(-145,350,-145,305)
LIG(-155,325,-55,325)
LIG(705,200,705,115)
LIG(-190,55,-160,55)
LIG(635,200,705,200)
LIG(-110,105,-110,65)
LIG(-210,95,-205,95)
LIG(-190,110,-145,110)
LIG(700,210,700,115)
LIG(635,210,700,210)
LIG(-5,385,40,385)
LIG(525,140,590,140)
LIG(465,150,470,150)
LIG(40,205,40,225)
LIG(710,160,710,115)
LIG(635,170,670,170)
LIG(635,160,710,160)
LIG(670,170,670,115)
LIG(-25,115,10,115)
LIG(85,190,85,215)
LIG(-160,55,-160,210)
LIG(-145,100,-145,90)
LIG(-175,35,-175,5)
LIG(40,320,40,385)
LIG(-35,115,-25,115)
LIG(-25,285,-20,285)
LIG(470,130,560,130)
LIG(560,130,560,155)
LIG(465,140,480,140)
LIG(545,180,545,115)
LIG(-155,210,-155,325)
LIG(-175,5,-55,5)
LIG(-140,305,-145,305)
LIG(-145,305,-145,275)
LIG(-145,275,-75,275)
LIG(540,170,540,115)
LIG(470,170,480,170)
LIG(470,170,470,220)
LIG(-145,90,-95,90)
LIG(-70,45,-30,45)
LIG(-190,380,-115,380)
LIG(-75,115,-75,145)
LIG(-230,80,-175,80)
LIG(560,155,590,155)
LIG(-85,60,180,60)
LIG(465,160,475,160)
LIG(590,155,590,150)
LIG(525,170,540,170)
LIG(-25,215,85,215)
LIG(-140,285,-25,285)
LIG(635,150,715,150)
LIG(715,150,715,115)
LIG(470,150,480,150)
LIG(-80,375,-80,335)
LIG(-25,205,-25,115)
LIG(-150,70,-100,70)
LIG(470,130,470,150)
LIG(-205,365,-120,365)
LIG(-25,320,40,320)
LIG(590,220,590,170)
LIG(585,160,590,160)
LIG(470,220,590,220)
LIG(675,180,675,110)
LIG(585,125,585,160)
LIG(-45,415,-25,415)
LIG(-45,385,-45,415)
LIG(-115,360,-65,360)
LIG(-115,370,-115,360)
LIG(475,125,585,125)
LIG(475,160,480,160)
LIG(475,160,475,125)
LIG(-25,285,-25,315)
LIG(-25,315,-25,320)
LIG(-140,295,-140,285)
LIG(-120,340,-70,340)
LIG(-205,95,-150,95)
LIG(-190,110,-190,380)
LIG(-55,325,-55,330)
LIG(-205,95,-205,215)
LIG(-75,275,-25,275)
LIG(-40,315,-25,315)
LIG(5,415,10,415)
LIG(-5,395,-5,405)
LIG(-110,65,55,65)
LIG(-5,405,-140,405)
LIG(-195,110,-190,110)
LIG(-10,95,0,95)
LIG(180,160,285,160)
LIG(200,140,195,140)
LIG(195,140,195,110)
LIG(195,110,315,110)
LIG(300,150,315,150)
LIG(315,150,315,120)
LIG(315,120,320,120)
LIG(0,90,0,-70)
LIG(0,95,0,150)
LIG(210,30,210,20)
LIG(325,20,330,20)
LIG(60,115,60,90)
LIG(60,90,0,90)
LIG(130,20,130,50)
LIG(0,95,375,95)
LIG(10,-65,10,50)
LIG(130,20,140,20)
LIG(90,70,115,70)
LIG(110,140,110,190)
LIG(170,40,205,40)
LIG(170,15,170,40)
LIG(-170,15,-65,15)
LIG(-160,210,-155,210)
LIG(-20,10,-20,40)
LIG(205,40,205,10)
LIG(20,20,130,20)
LIG(210,40,205,40)
LIG(-35,125,-35,135)
LIG(-10,105,-10,95)
LIG(-35,105,-10,105)
LIG(115,70,115,150)
LIG(-5,-65,-5,80)
LIG(15,10,135,10)
LIG(15,40,15,10)
LIG(20,40,15,40)
LIG(310,50,325,50)
LIG(205,10,325,10)
LIG(315,150,375,150)
LIG(375,150,375,95)
LIG(10,50,10,115)
LIG(360,15,360,80)
LIG(360,80,195,80)
LIG(195,80,195,110)
LIG(180,60,180,160)
LIG(180,60,295,60)
LIG(210,20,325,20)
LIG(30,115,30,80)
LIG(325,50,325,20)
LIG(-30,50,10,50)
LIG(-20,40,15,40)
LIG(20,30,20,20)
LIG(-205,215,-205,365)
LIG(130,50,120,50)
LIG(90,70,90,50)
LIG(55,65,155,65)
LIG(270,150,115,150)
LIG(200,130,200,120)
LIG(280,70,280,50)
LIG(0,150,25,150)
LIG(155,65,245,65)
LIG(155,145,155,65)
LIG(235,145,155,145)
LIG(115,70,280,70)
LIG(55,45,55,65)
LIG(200,120,315,120)
LIG(245,45,245,65)
LIG(-175,80,-170,80)
LIG(-95,115,-75,115)
LIG(-95,90,-95,115)
LIG(-135,65,-110,65)
LIG(-135,40,-135,65)
LIG(-170,135,-170,80)
LIG(-150,95,-150,70)
LIG(-100,45,-100,70)
LIG(-175,80,-175,35)
LIG(-75,180,-75,275)
LIG(-170,25,-170,15)
LIG(-65,215,-205,215)
LIG(-160,55,-85,55)
LIG(-170,35,-175,35)
LIG(525,180,545,180)
LIG(465,170,470,170)
LIG(525,210,565,210)
LIG(565,115,565,210)
LIG(550,190,550,115)
LIG(525,200,570,200)
LIG(570,200,570,115)
LIG(525,160,575,160)
LIG(575,115,575,160)
LIG(525,190,550,190)
LIG(520,150,580,150)
LIG(580,110,580,150)
LIG(95,160,65,160)
LIG(40,235,100,235)
LIG(40,235,40,320)
LIG(100,200,100,160)
LIG(30,80,-5,80)
LIG(100,160,95,160)
LIG(130,140,110,140)
LIG(35,160,35,150)
LIG(65,160,35,160)
LIG(65,160,65,150)
LIG(325,50,390,50)
LIG(390,50,390,170)
LIG(390,170,55,170)
LIG(55,170,55,150)
LIG(130,50,130,140)
LIG(95,160,95,150)
LIG(5,100,5,-5)
LIG(110,190,85,190)
LIG(85,190,85,150)
LIG(90,100,5,100)
LIG(90,115,90,100)
LIG(130,-5,130,20)
LIG(130,-5,55,-5)
LIG(5,-5,45,-5)
LIG(5,-40,5,-65)
LIG(50,-40,5,-40)
LIG(-25,225,40,225)
LIG(-65,15,-50,15)
LIG(-30,45,-30,50)
LIG(-30,25,-30,45)
LIG(-30,25,-65,25)
LIG(-65,25,-65,15)
TEXT 157 44  #Qout
TEXT -225 74  #Enable
TEXT -196 91  #reset
TEXT -181 105  #Sclear
TEXT 3 270  #Clkout
TEXT -3 309  #Qout
TEXT 353 5  #Clkout
TEXT 343 105  #Clkout
TEXT 173 7  #Clkout
TEXT 347 44  #Qout
TEXT -33 39  #Qout
TEXT -27 0  #Clkout
TEXT 337 144  #Qout
FFIG C:\Users\AcidRobot\Downloads\DSCH\clock_work\twelve_and_sixty.sch
