DSCH3
VERSION 11/26/2016 8:13:20 PM
BB(-239,-100,393,425)
SYM  #inv
BB(-30,405,5,425)
TITLE -15 415  #inv_1
MODEL 101
PROP                                                                                                                                    
REC(30,270,0,0, )
VIS 0
PIN(-30,415,0.000,0.000)in
PIN(5,415,0.030,0.070)out
LIG(-30,415,-20,415)
LIG(-20,405,-20,425)
LIG(-20,405,-5,415)
LIG(-20,425,-5,415)
LIG(-3,415,-3,415)
LIG(-1,415,5,415)
VLG               not not1(out,in);
FSYM
SYM  #inv
BB(-15,135,5,170)
TITLE -5 150  #inv_2
MODEL 101
PROP                                                                                                                                    
REC(235,50,0,0, )
VIS 0
PIN(-5,135,0.000,0.000)in
PIN(-5,170,0.030,0.070)out
LIG(-5,135,-5,145)
LIG(5,145,-15,145)
LIG(5,145,-5,160)
LIG(-15,145,-5,160)
LIG(-5,162,-5,162)
LIG(-5,164,-5,170)
VLG      not not1(out,in);
FSYM
SYM  #dreg
BB(270,135,300,160)
TITLE 282 143  #dreg_3
MODEL 860
PROP                                                                                                                                    
REC(245,125,0,0,r)
VIS 5
PIN(270,140,0.000,0.000)D
PIN(270,150,0.000,0.000)RST
PIN(285,160,0.000,0.000)H
PIN(300,150,0.120,0.350)Q
PIN(300,140,0.120,0.000)nQ
LIG(270,150,275,150)
LIG(270,140,275,140)
LIG(285,160,285,159)
LIG(285,157,285,157)
LIG(295,150,300,150)
LIG(295,140,300,140)
LIG(295,155,275,155)
LIG(295,135,295,155)
LIG(275,135,295,135)
LIG(275,155,275,135)
LIG(284,155,285,153)
LIG(285,153,286,155)
VLG                  module dreg(D,RST,H,Q,nQ);
VLG                   input D,RST,H;
VLG                   output Q,nQ;
VLG                  endmodule
FSYM
SYM  #and2
BB(55,30,90,50)
TITLE 67 41  #and2_4
MODEL 402
PROP                                                                                                                                    
REC(200,5,0,0, )
VIS 0
PIN(55,45,0.000,0.000)b
PIN(55,35,0.000,0.000)a
PIN(90,40,0.090,0.070)s
LIG(55,45,63,45)
LIG(63,30,63,50)
LIG(83,40,90,40)
LIG(82,42,79,46)
LIG(83,40,82,42)
LIG(82,38,83,40)
LIG(79,34,82,38)
LIG(74,31,79,34)
LIG(79,46,74,49)
LIG(74,49,63,50)
LIG(63,30,74,31)
LIG(55,35,63,35)
VLG               and and2(out,a,b);
FSYM
SYM  #and2
BB(135,5,170,25)
TITLE 147 16  #and2_5
MODEL 402
PROP                                                                                                                                    
REC(235,5,0,0, )
VIS 0
PIN(135,20,0.000,0.000)b
PIN(135,10,0.000,0.000)a
PIN(170,15,0.090,0.140)s
LIG(135,20,143,20)
LIG(143,5,143,25)
LIG(163,15,170,15)
LIG(162,17,159,21)
LIG(163,15,162,17)
LIG(162,13,163,15)
LIG(159,9,162,13)
LIG(154,6,159,9)
LIG(159,21,154,24)
LIG(154,24,143,25)
LIG(143,5,154,6)
LIG(135,10,143,10)
VLG               and and2(out,a,b);
FSYM
SYM  #and2
BB(-105,295,-70,315)
TITLE -93 306  #and2_6
MODEL 402
PROP                                                                                                                                    
REC(40,270,0,0, )
VIS 0
PIN(-105,310,0.000,0.000)b
PIN(-105,300,0.000,0.000)a
PIN(-70,305,0.090,0.070)s
LIG(-105,310,-97,310)
LIG(-97,295,-97,315)
LIG(-77,305,-70,305)
LIG(-78,307,-81,311)
LIG(-77,305,-78,307)
LIG(-78,303,-77,305)
LIG(-81,299,-78,303)
LIG(-86,296,-81,299)
LIG(-81,311,-86,314)
LIG(-86,314,-97,315)
LIG(-97,295,-86,296)
LIG(-105,300,-97,300)
VLG               and and2(out,a,b);
FSYM
SYM  #dreg
BB(-70,300,-40,325)
TITLE -58 308  #dreg_7
MODEL 860
PROP                                                                                                                                    
REC(-95,290,0,0,r)
VIS 5
PIN(-70,305,0.000,0.000)D
PIN(-70,315,0.000,0.000)RST
PIN(-55,325,0.000,0.000)H
PIN(-40,315,0.120,0.350)Q
PIN(-40,305,0.120,0.000)nQ
LIG(-70,315,-65,315)
LIG(-70,305,-65,305)
LIG(-55,325,-55,324)
LIG(-55,322,-55,322)
LIG(-45,315,-40,315)
LIG(-45,305,-40,305)
LIG(-45,320,-65,320)
LIG(-45,300,-45,320)
LIG(-65,300,-45,300)
LIG(-65,320,-65,300)
LIG(-56,320,-55,318)
LIG(-55,318,-54,320)
VLG                  module dreg(D,RST,H,Q,nQ);
VLG                   input D,RST,H;
VLG                   output Q,nQ;
VLG                  endmodule
FSYM
SYM  #and2
BB(-145,95,-110,115)
TITLE -133 106  #and2_8
MODEL 402
PROP                                                                                                                                    
REC(5,5,0,0, )
VIS 0
PIN(-145,110,0.000,0.000)b
PIN(-145,100,0.000,0.000)a
PIN(-110,105,0.090,0.280)s
LIG(-145,110,-137,110)
LIG(-137,95,-137,115)
LIG(-117,105,-110,105)
LIG(-118,107,-121,111)
LIG(-117,105,-118,107)
LIG(-118,103,-117,105)
LIG(-121,99,-118,103)
LIG(-126,96,-121,99)
LIG(-121,111,-126,114)
LIG(-126,114,-137,115)
LIG(-137,95,-126,96)
LIG(-145,100,-137,100)
VLG               and and2(out,a,b);
FSYM
SYM  #inv
BB(-130,185,-110,220)
TITLE -120 200  #inv_32
MODEL 101
PROP                                                                                                                                    
REC(90,310,0,0, )
VIS 0
PIN(-120,185,0.000,0.000)in
PIN(-120,220,0.030,0.210)out
LIG(-120,185,-120,195)
LIG(-110,195,-130,195)
LIG(-110,195,-120,210)
LIG(-130,195,-120,210)
LIG(-120,212,-120,212)
LIG(-120,214,-120,220)
VLG     not not1(out,in);
FSYM
SYM  #xor2
BB(-100,90,-80,125)
TITLE -90 108  #xor2_33
MODEL 602
PROP                                                                                                                                    
REC(-185,25,0,0, )
VIS 0
PIN(-95,125,0.000,0.000)a
PIN(-85,125,0.000,0.000)b
PIN(-90,90,0.090,0.000)out
LIG(-83,117,-80,121)
LIG(-83,113,-80,117)
LIG(-90,97,-90,90)
LIG(-88,98,-84,101)
LIG(-90,97,-88,98)
LIG(-92,98,-90,97)
LIG(-96,101,-92,98)
LIG(-99,106,-96,101)
LIG(-84,101,-81,106)
LIG(-81,106,-80,117)
LIG(-100,117,-99,106)
LIG(-87,111,-83,113)
LIG(-100,117,-97,113)
LIG(-97,113,-93,111)
LIG(-93,111,-90,110)
LIG(-90,110,-87,111)
LIG(-100,121,-97,117)
LIG(-97,117,-93,115)
LIG(-93,115,-90,114)
LIG(-90,114,-87,115)
LIG(-87,115,-83,117)
LIG(-95,125,-95,116)
LIG(-85,125,-85,116)
VLG     xor xor2(out,a,b);
FSYM
SYM  #vss
BB(55,217,65,225)
TITLE 59 222  #vss
MODEL 0
PROP                                                                                                                                    
REC(55,215,0,0,b)
VIS 0
PIN(60,215,0.000,0.000)vss
LIG(60,215,60,220)
LIG(55,220,65,220)
LIG(55,223,57,220)
LIG(57,223,59,220)
LIG(59,223,61,220)
LIG(61,223,63,220)
FSYM
SYM  #digit
BB(20,170,45,205)
TITLE 20 202  #digit2
MODEL 89
PROP                                                                                                                                    
REC(25,175,15,21,r)
VIS 4
PIN(25,205,0.000,0.000)digit23
PIN(30,205,0.000,0.000)digit22
PIN(35,205,0.000,0.000)digit21
PIN(40,205,0.000,0.000)digit20
LIG(20,170,20,200)
LIG(45,170,20,170)
LIG(45,200,45,170)
LIG(20,200,45,200)
LIG(25,200,25,205)
LIG(30,200,30,205)
LIG(35,200,35,205)
LIG(40,200,40,205)
FSYM
SYM  #and2
BB(-25,270,10,290)
TITLE -13 281  #and2_12
MODEL 402
PROP                                                                                                                                    
REC(75,270,0,0, )
VIS 0
PIN(-25,285,0.000,0.000)b
PIN(-25,275,0.000,0.000)a
PIN(10,280,0.090,0.000)s
LIG(-25,285,-17,285)
LIG(-17,270,-17,290)
LIG(3,280,10,280)
LIG(2,282,-1,286)
LIG(3,280,2,282)
LIG(2,278,3,280)
LIG(-1,274,2,278)
LIG(-6,271,-1,274)
LIG(-1,286,-6,289)
LIG(-6,289,-17,290)
LIG(-17,270,-6,271)
LIG(-25,275,-17,275)
VLG               and and2(out,a,b);
FSYM
SYM  #and2
BB(315,105,350,125)
TITLE 327 116  #and2_13
MODEL 402
PROP                                                                                                                                    
REC(415,105,0,0, )
VIS 0
PIN(315,120,0.000,0.000)b
PIN(315,110,0.000,0.000)a
PIN(350,115,0.090,0.000)s
LIG(315,120,323,120)
LIG(323,105,323,125)
LIG(343,115,350,115)
LIG(342,117,339,121)
LIG(343,115,342,117)
LIG(342,113,343,115)
LIG(339,109,342,113)
LIG(334,106,339,109)
LIG(339,121,334,124)
LIG(334,124,323,125)
LIG(323,105,334,106)
LIG(315,110,323,110)
VLG               and and2(out,a,b);
FSYM
SYM  #dreg
BB(90,35,120,60)
TITLE 102 43  #dreg_14
MODEL 860
PROP                                                                                                                                    
REC(65,25,0,0,r)
VIS 5
PIN(90,40,0.000,0.000)D
PIN(90,50,0.000,0.000)RST
PIN(105,60,0.000,0.000)H
PIN(120,50,0.120,0.280)Q
PIN(120,40,0.120,0.000)nQ
LIG(90,50,95,50)
LIG(90,40,95,40)
LIG(105,60,105,59)
LIG(105,57,105,57)
LIG(115,50,120,50)
LIG(115,40,120,40)
LIG(115,55,95,55)
LIG(115,35,115,55)
LIG(95,35,115,35)
LIG(95,55,95,35)
LIG(104,55,105,53)
LIG(105,53,106,55)
VLG                  module dreg(D,RST,H,Q,nQ);
VLG                   input D,RST,H;
VLG                   output Q,nQ;
VLG                  endmodule
FSYM
SYM  #xor2
BB(-140,290,-105,310)
TITLE -123 300  #xor2_15
MODEL 602
PROP                                                                                                                                    
REC(40,265,0,0, )
VIS 0
PIN(-140,295,0.000,0.000)a
PIN(-140,305,0.000,0.000)b
PIN(-105,300,0.090,0.070)out
LIG(-132,307,-136,310)
LIG(-128,307,-132,310)
LIG(-112,300,-105,300)
LIG(-113,302,-116,306)
LIG(-112,300,-113,302)
LIG(-113,298,-112,300)
LIG(-116,294,-113,298)
LIG(-121,291,-116,294)
LIG(-116,306,-121,309)
LIG(-121,309,-132,310)
LIG(-132,290,-121,291)
LIG(-126,303,-128,307)
LIG(-132,290,-128,293)
LIG(-128,293,-126,297)
LIG(-126,297,-125,300)
LIG(-125,300,-126,303)
LIG(-136,290,-132,293)
LIG(-132,293,-130,297)
LIG(-130,297,-129,300)
LIG(-129,300,-130,303)
LIG(-130,303,-132,307)
LIG(-140,295,-131,295)
LIG(-140,305,-131,305)
VLG               xor xor2(out,a,b);
FSYM
SYM  #xor2
BB(-95,145,-75,180)
TITLE -85 163  #xor2_16
MODEL 602
PROP                                                                                                                                    
REC(-240,-140,0,0, )
VIS 0
PIN(-90,180,0.000,0.000)a
PIN(-80,180,0.000,0.000)b
PIN(-85,145,0.090,0.140)out
LIG(-78,172,-75,176)
LIG(-78,168,-75,172)
LIG(-85,152,-85,145)
LIG(-83,153,-79,156)
LIG(-85,152,-83,153)
LIG(-87,153,-85,152)
LIG(-91,156,-87,153)
LIG(-94,161,-91,156)
LIG(-79,156,-76,161)
LIG(-76,161,-75,172)
LIG(-95,172,-94,161)
LIG(-82,166,-78,168)
LIG(-95,172,-92,168)
LIG(-92,168,-88,166)
LIG(-88,166,-85,165)
LIG(-85,165,-82,166)
LIG(-95,176,-92,172)
LIG(-92,172,-88,170)
LIG(-88,170,-85,169)
LIG(-85,169,-82,170)
LIG(-82,170,-78,172)
LIG(-90,180,-90,171)
LIG(-80,180,-80,171)
VLG     xor xor2(out,a,b);
FSYM
SYM  #xor2
BB(20,25,55,45)
TITLE 37 35  #xor2_17
MODEL 602
PROP                                                                                                                                    
REC(200,0,0,0, )
VIS 0
PIN(20,30,0.000,0.000)a
PIN(20,40,0.000,0.000)b
PIN(55,35,0.090,0.070)out
LIG(28,42,24,45)
LIG(32,42,28,45)
LIG(48,35,55,35)
LIG(47,37,44,41)
LIG(48,35,47,37)
LIG(47,33,48,35)
LIG(44,29,47,33)
LIG(39,26,44,29)
LIG(44,41,39,44)
LIG(39,44,28,45)
LIG(28,25,39,26)
LIG(34,38,32,42)
LIG(28,25,32,28)
LIG(32,28,34,32)
LIG(34,32,35,35)
LIG(35,35,34,38)
LIG(24,25,28,28)
LIG(28,28,30,32)
LIG(30,32,31,35)
LIG(31,35,30,38)
LIG(30,38,28,42)
LIG(20,30,29,30)
LIG(20,40,29,40)
VLG               xor xor2(out,a,b);
FSYM
SYM  #light
BB(8,400,14,414)
TITLE 10 414  #light1
MODEL 49
PROP                                                                                                                                    
REC(9,401,4,4,r)
VIS 1
PIN(10,415,0.000,0.000)out1
LIG(13,406,13,401)
LIG(13,401,12,400)
LIG(9,401,9,406)
LIG(12,411,12,408)
LIG(11,411,14,411)
LIG(11,413,13,411)
LIG(12,413,14,411)
LIG(8,408,14,408)
LIG(10,408,10,415)
LIG(8,406,8,408)
LIG(14,406,8,406)
LIG(14,408,14,406)
LIG(10,400,9,401)
LIG(12,400,10,400)
FSYM
SYM  #nand3
BB(-40,370,-5,400)
TITLE -20 385  #nand3_18
MODEL 203
PROP                                                                                                                                    
REC(-5,370,0,0,P)
VIS 0
PIN(-5,375,0.000,0.000)a
PIN(-5,385,0.000,0.000)b
PIN(-5,395,0.000,0.000)c
PIN(-45,385,0.060,0.140)s
LIG(-5,395,-15,395)
LIG(-5,385,-15,385)
LIG(-5,375,-15,375)
LIG(-15,385,-15,400)
LIG(-30,396,-25,399)
LIG(-34,388,-30,396)
LIG(-15,370,-15,385)
LIG(-15,370,-25,371)
LIG(-35,385,-34,388)
LIG(-34,382,-35,385)
LIG(-15,400,-25,399)
LIG(-30,374,-34,382)
LIG(-25,371,-30,374)
LIG(-39,385,-45,385)
LIG(-37,385,-37,385)
VLG               nand nand3(out,a,b,c);
FSYM
SYM  #and2
BB(-115,365,-80,385)
TITLE -103 376  #and2_19
MODEL 402
PROP                                                                                                                                    
REC(35,275,0,0, )
VIS 0
PIN(-115,380,0.000,0.000)b
PIN(-115,370,0.000,0.000)a
PIN(-80,375,0.090,0.070)s
LIG(-115,380,-107,380)
LIG(-107,365,-107,385)
LIG(-87,375,-80,375)
LIG(-88,377,-91,381)
LIG(-87,375,-88,377)
LIG(-88,373,-87,375)
LIG(-91,369,-88,373)
LIG(-96,366,-91,369)
LIG(-91,381,-96,384)
LIG(-96,384,-107,385)
LIG(-107,365,-96,366)
LIG(-115,370,-107,370)
VLG               and and2(out,a,b);
FSYM
SYM  #clock
BB(-205,52,-190,58)
TITLE -200 55  #clock1
MODEL 69
PROP   10.000 10.000                                                                                                                                
REC(-203,53,6,4,r)
VIS 1
PIN(-190,55,1.500,0.420)clk1
LIG(-195,55,-190,55)
LIG(-200,53,-202,53)
LIG(-196,53,-198,53)
LIG(-195,52,-195,58)
LIG(-205,58,-205,52)
LIG(-200,57,-200,53)
LIG(-198,53,-198,57)
LIG(-198,57,-200,57)
LIG(-202,57,-204,57)
LIG(-202,53,-202,57)
LIG(-195,58,-205,58)
LIG(-195,52,-205,52)
FSYM
SYM  #nand3
BB(-70,100,-35,130)
TITLE -50 115  #nand3_20
MODEL 203
PROP                                                                                                                                    
REC(-35,100,0,0,P)
VIS 0
PIN(-35,105,0.000,0.000)a
PIN(-35,115,0.000,0.000)b
PIN(-35,125,0.000,0.000)c
PIN(-75,115,0.060,0.070)s
LIG(-35,125,-45,125)
LIG(-35,115,-45,115)
LIG(-35,105,-45,105)
LIG(-45,115,-45,130)
LIG(-60,126,-55,129)
LIG(-64,118,-60,126)
LIG(-45,100,-45,115)
LIG(-45,100,-55,101)
LIG(-65,115,-64,118)
LIG(-64,112,-65,115)
LIG(-45,130,-55,129)
LIG(-60,104,-64,112)
LIG(-55,101,-60,104)
LIG(-69,115,-75,115)
LIG(-67,115,-67,115)
VLG               nand nand3(out,a,b,c);
FSYM
SYM  #button
BB(-239,76,-230,84)
TITLE -235 80  #button1
MODEL 59
PROP                                                                                                                                    
REC(-238,77,6,6,r)
VIS 1
PIN(-230,80,0.000,0.000)in1
LIG(-231,80,-230,80)
LIG(-239,84,-239,76)
LIG(-231,84,-239,84)
LIG(-231,76,-231,84)
LIG(-239,76,-231,76)
LIG(-238,83,-238,77)
LIG(-232,83,-238,83)
LIG(-232,77,-232,83)
LIG(-238,77,-232,77)
FSYM
SYM  #button
BB(-219,91,-210,99)
TITLE -215 95  #button2
MODEL 59
PROP                                                                                                                                    
REC(-218,92,6,6,r)
VIS 1
PIN(-210,95,0.000,0.000)in2
LIG(-211,95,-210,95)
LIG(-219,99,-219,91)
LIG(-211,99,-219,99)
LIG(-211,91,-211,99)
LIG(-219,91,-211,91)
LIG(-218,98,-218,92)
LIG(-212,98,-218,98)
LIG(-212,92,-212,98)
LIG(-218,92,-212,92)
FSYM
SYM  #button
BB(-204,106,-195,114)
TITLE -200 110  #button3
MODEL 59
PROP                                                                                                                                    
REC(-203,107,6,6,r)
VIS 1
PIN(-195,110,0.000,0.000)in3
LIG(-196,110,-195,110)
LIG(-204,114,-204,106)
LIG(-196,114,-204,114)
LIG(-196,106,-196,114)
LIG(-204,106,-196,106)
LIG(-203,113,-203,107)
LIG(-197,113,-203,113)
LIG(-197,107,-197,113)
LIG(-203,107,-197,107)
FSYM
SYM  #and2
BB(325,5,360,25)
TITLE 337 16  #and2_21
MODEL 402
PROP                                                                                                                                    
REC(425,5,0,0, )
VIS 0
PIN(325,20,0.000,0.000)b
PIN(325,10,0.000,0.000)a
PIN(360,15,0.090,0.140)s
LIG(325,20,333,20)
LIG(333,5,333,25)
LIG(353,15,360,15)
LIG(352,17,349,21)
LIG(353,15,352,17)
LIG(352,13,353,15)
LIG(349,9,352,13)
LIG(344,6,349,9)
LIG(349,21,344,24)
LIG(344,24,333,25)
LIG(333,5,344,6)
LIG(325,10,333,10)
VLG               and and2(out,a,b);
FSYM
SYM  #dreg
BB(280,35,310,60)
TITLE 292 43  #dreg_22
MODEL 860
PROP                                                                                                                                    
REC(255,25,0,0,r)
VIS 5
PIN(280,40,0.000,0.000)D
PIN(280,50,0.000,0.000)RST
PIN(295,60,0.000,0.000)H
PIN(310,50,0.120,0.280)Q
PIN(310,40,0.120,0.000)nQ
LIG(280,50,285,50)
LIG(280,40,285,40)
LIG(295,60,295,59)
LIG(295,57,295,57)
LIG(305,50,310,50)
LIG(305,40,310,40)
LIG(305,55,285,55)
LIG(305,35,305,55)
LIG(285,35,305,35)
LIG(285,55,285,35)
LIG(294,55,295,53)
LIG(295,53,296,55)
VLG                  module dreg(D,RST,H,Q,nQ);
VLG                   input D,RST,H;
VLG                   output Q,nQ;
VLG                  endmodule
FSYM
SYM  #and2
BB(245,30,280,50)
TITLE 257 41  #and2_23
MODEL 402
PROP                                                                                                                                    
REC(390,5,0,0, )
VIS 0
PIN(245,45,0.000,0.000)b
PIN(245,35,0.000,0.000)a
PIN(280,40,0.090,0.070)s
LIG(245,45,253,45)
LIG(253,30,253,50)
LIG(273,40,280,40)
LIG(272,42,269,46)
LIG(273,40,272,42)
LIG(272,38,273,40)
LIG(269,34,272,38)
LIG(264,31,269,34)
LIG(269,46,264,49)
LIG(264,49,253,50)
LIG(253,30,264,31)
LIG(245,35,253,35)
VLG               and and2(out,a,b);
FSYM
SYM  #xor2
BB(210,25,245,45)
TITLE 227 35  #xor2_24
MODEL 602
PROP                                                                                                                                    
REC(390,0,0,0, )
VIS 0
PIN(210,30,0.000,0.000)a
PIN(210,40,0.000,0.000)b
PIN(245,35,0.090,0.070)out
LIG(218,42,214,45)
LIG(222,42,218,45)
LIG(238,35,245,35)
LIG(237,37,234,41)
LIG(238,35,237,37)
LIG(237,33,238,35)
LIG(234,29,237,33)
LIG(229,26,234,29)
LIG(234,41,229,44)
LIG(229,44,218,45)
LIG(218,25,229,26)
LIG(224,38,222,42)
LIG(218,25,222,28)
LIG(222,28,224,32)
LIG(224,32,225,35)
LIG(225,35,224,38)
LIG(214,25,218,28)
LIG(218,28,220,32)
LIG(220,32,221,35)
LIG(221,35,220,38)
LIG(220,38,218,42)
LIG(210,30,219,30)
LIG(210,40,219,40)
VLG               xor xor2(out,a,b);
FSYM
SYM  #and2
BB(-60,210,-25,230)
TITLE -37 221  #and2_31
MODEL 402
PROP                                                                                                                                    
REC(-85,10,0,0, )
VIS 0
PIN(-25,225,0.000,0.000)b
PIN(-25,215,0.000,0.000)a
PIN(-60,220,0.090,0.140)s
LIG(-25,225,-33,225)
LIG(-33,210,-33,230)
LIG(-53,220,-60,220)
LIG(-52,222,-49,226)
LIG(-53,220,-52,222)
LIG(-52,218,-53,220)
LIG(-49,214,-52,218)
LIG(-44,211,-49,214)
LIG(-49,226,-44,229)
LIG(-44,229,-33,230)
LIG(-33,210,-44,211)
LIG(-25,215,-33,215)
VLG      and and2(out,a,b);
FSYM
SYM  #digit
BB(-10,-100,15,-65)
TITLE -10 -68  #digit1
MODEL 89
PROP                                                                                                                                    
REC(-5,-95,15,21,r)
VIS 4
PIN(-5,-65,0.000,0.000)digit1
PIN(0,-65,0.000,0.000)digit2
PIN(5,-65,0.000,0.000)digit3
PIN(10,-65,0.000,0.000)digit4
LIG(-10,-100,-10,-70)
LIG(15,-100,-10,-100)
LIG(15,-70,15,-100)
LIG(-10,-70,15,-70)
LIG(-5,-70,-5,-65)
LIG(0,-70,0,-65)
LIG(5,-70,5,-65)
LIG(10,-70,10,-65)
FSYM
SYM  #xor2
BB(200,125,235,145)
TITLE 217 135  #xor2_26
MODEL 602
PROP                                                                                                                                    
REC(380,100,0,0, )
VIS 0
PIN(200,130,0.000,0.000)a
PIN(200,140,0.000,0.000)b
PIN(235,135,0.090,0.070)out
LIG(208,142,204,145)
LIG(212,142,208,145)
LIG(228,135,235,135)
LIG(227,137,224,141)
LIG(228,135,227,137)
LIG(227,133,228,135)
LIG(224,129,227,133)
LIG(219,126,224,129)
LIG(224,141,219,144)
LIG(219,144,208,145)
LIG(208,125,219,126)
LIG(214,138,212,142)
LIG(208,125,212,128)
LIG(212,128,214,132)
LIG(214,132,215,135)
LIG(215,135,214,138)
LIG(204,125,208,128)
LIG(208,128,210,132)
LIG(210,132,211,135)
LIG(211,135,210,138)
LIG(210,138,208,142)
LIG(200,130,209,130)
LIG(200,140,209,140)
VLG               xor xor2(out,a,b);
FSYM
SYM  #and2
BB(235,130,270,150)
TITLE 247 141  #and2_27
MODEL 402
PROP                                                                                                                                    
REC(380,105,0,0, )
VIS 0
PIN(235,145,0.000,0.000)b
PIN(235,135,0.000,0.000)a
PIN(270,140,0.090,0.070)s
LIG(235,145,243,145)
LIG(243,130,243,150)
LIG(263,140,270,140)
LIG(262,142,259,146)
LIG(263,140,262,142)
LIG(262,138,263,140)
LIG(259,134,262,138)
LIG(254,131,259,134)
LIG(259,146,254,149)
LIG(254,149,243,150)
LIG(243,130,254,131)
LIG(235,135,243,135)
VLG               and and2(out,a,b);
FSYM
SYM  #and4
BB(-15,170,20,210)
TITLE 0 185  #and4_28
MODEL 404
PROP                                                                                                                                    
REC(20,170,0,0,P)
VIS 4
PIN(15,170,0.000,0.000)a
PIN(5,170,0.000,0.000)b
PIN(-5,170,0.000,0.000)c
PIN(-15,170,0.000,0.000)d
PIN(0,210,0.090,0.140)s
LIG(-15,170,-15,180)
LIG(20,180,-20,180)
LIG(-9,199,-15,195)
LIG(20,180,19,190)
LIG(19,190,15,195)
LIG(-19,190,-15,195)
LIG(15,170,15,180)
LIG(-20,180,-19,190)
LIG(5,170,5,180)
LIG(-5,170,-5,180)
LIG(0,200,-9,199)
LIG(9,199,0,200)
LIG(15,195,9,199)
LIG(0,200,0,210)
VLG      and and4(out,a,b,c,d);
FSYM
SYM  #inv
BB(-25,135,-5,170)
TITLE -15 150  #inv_29
MODEL 101
PROP                                                                                                                                    
REC(180,50,0,0, )
VIS 0
PIN(-15,135,0.000,0.000)in
PIN(-15,170,0.030,0.070)out
LIG(-15,135,-15,145)
LIG(-5,145,-25,145)
LIG(-5,145,-15,160)
LIG(-25,145,-15,160)
LIG(-15,162,-15,162)
LIG(-15,164,-15,170)
VLG      not not1(out,in);
FSYM
SYM  #inv
BB(5,135,25,170)
TITLE 15 150  #inv_30
MODEL 101
PROP                                                                                                                                    
REC(230,50,0,0, )
VIS 0
PIN(15,135,0.000,0.000)in
PIN(15,170,0.030,0.070)out
LIG(15,135,15,145)
LIG(25,145,5,145)
LIG(25,145,15,160)
LIG(5,145,15,160)
LIG(15,162,15,162)
LIG(15,164,15,170)
VLG      not not1(out,in);
FSYM
SYM  #and2
BB(-140,5,-105,25)
TITLE -128 16  #&
MODEL 402
PROP                                                                                                                                   
REC(0,0,0,0, )
VIS 0
PIN(-140,20,0.000,0.000)b
PIN(-140,10,0.000,0.000)a
PIN(-105,15,0.090,0.070)s
LIG(-140,20,-132,20)
LIG(-132,5,-132,25)
LIG(-112,15,-105,15)
LIG(-113,17,-116,21)
LIG(-112,15,-113,17)
LIG(-113,13,-112,15)
LIG(-116,9,-113,13)
LIG(-121,6,-116,9)
LIG(-116,21,-121,24)
LIG(-121,24,-132,25)
LIG(-132,5,-121,6)
LIG(-140,10,-132,10)
VLG  and and2(out,a,b);
FSYM
SYM  #and2
BB(-140,25,-105,45)
TITLE -128 36  #&
MODEL 402
PROP                                                                                                                                   
REC(0,0,0,0, )
VIS 0
PIN(-140,40,0.000,0.000)b
PIN(-140,30,0.000,0.000)a
PIN(-105,35,0.090,0.070)s
LIG(-140,40,-132,40)
LIG(-132,25,-132,45)
LIG(-112,35,-105,35)
LIG(-113,37,-116,41)
LIG(-112,35,-113,37)
LIG(-113,33,-112,35)
LIG(-116,29,-113,33)
LIG(-121,26,-116,29)
LIG(-116,41,-121,44)
LIG(-121,44,-132,45)
LIG(-132,25,-121,26)
LIG(-140,30,-132,30)
VLG  and and2(out,a,b);
FSYM
SYM  #nor2
BB(-105,0,-70,20)
TITLE -85 10  #|
MODEL 302
PROP                                                                                                                                   
REC(0,0,0,0, )
VIS 0
PIN(-105,5,0.000,0.000)a
PIN(-105,15,0.000,0.000)b
PIN(-70,10,0.090,0.070)s
LIG(-105,15,-92,15)
LIG(-93,17,-97,20)
LIG(-78,12,-81,16)
LIG(-77,10,-78,12)
LIG(-78,8,-77,10)
LIG(-81,4,-78,8)
LIG(-86,1,-81,4)
LIG(-81,16,-86,19)
LIG(-86,19,-97,20)
LIG(-97,0,-86,1)
LIG(-91,13,-93,17)
LIG(-97,0,-93,3)
LIG(-93,3,-91,7)
LIG(-91,7,-90,10)
LIG(-90,10,-91,13)
LIG(-105,5,-92,5)
LIG(-73,10,-70,10)
LIG(-75,10,-75,10)
VLG  nor nor2(s,a,b);
FSYM
SYM  #nor2
BB(-105,30,-70,50)
TITLE -85 40  #|
MODEL 302
PROP                                                                                                                                   
REC(0,0,0,0, )
VIS 0
PIN(-105,35,0.000,0.000)a
PIN(-105,45,0.000,0.000)b
PIN(-70,40,0.090,0.280)s
LIG(-105,45,-92,45)
LIG(-93,47,-97,50)
LIG(-78,42,-81,46)
LIG(-77,40,-78,42)
LIG(-78,38,-77,40)
LIG(-81,34,-78,38)
LIG(-86,31,-81,34)
LIG(-81,46,-86,49)
LIG(-86,49,-97,50)
LIG(-97,30,-86,31)
LIG(-91,43,-93,47)
LIG(-97,30,-93,33)
LIG(-93,33,-91,37)
LIG(-91,37,-90,40)
LIG(-90,40,-91,43)
LIG(-105,35,-92,35)
LIG(-73,40,-70,40)
LIG(-75,40,-75,40)
VLG  nor nor2(s,a,b);
FSYM
SYM  #inv
BB(-175,0,-140,20)
TITLE -160 10  #~
MODEL 101
PROP                                                                                                                                   
REC(0,0,0,0, )
VIS 0
PIN(-175,10,0.000,0.000)in
PIN(-140,10,0.030,0.070)out
LIG(-175,10,-165,10)
LIG(-165,0,-165,20)
LIG(-165,0,-150,10)
LIG(-165,20,-150,10)
LIG(-148,10,-148,10)
LIG(-146,10,-140,10)
VLG  not not1(out,in);
FSYM
CNC(130 20)
CNC(40 320)
CNC(-90 190)
CNC(10 115)
CNC(-120 145)
CNC(-25 285)
CNC(30 215)
CNC(-25 315)
CNC(40 225)
CNC(325 20)
CNC(90 70)
CNC(-190 110)
CNC(-145 305)
CNC(35 215)
CNC(130 20)
CNC(-205 95)
CNC(-160 180)
CNC(-5 95)
CNC(195 110)
CNC(315 120)
CNC(-120 275)
CNC(315 150)
CNC(130 20)
CNC(15 40)
CNC(115 70)
CNC(130 20)
CNC(205 40)
CNC(155 65)
CNC(55 65)
CNC(325 50)
CNC(205 40)
CNC(180 60)
CNC(55 65)
CNC(130 20)
CNC(-5 95)
CNC(130 50)
CNC(5 120)
CNC(55 130)
CNC(10 115)
CNC(10 45)
CNC(10 115)
CNC(15 40)
CNC(-170 85)
CNC(-175 40)
CNC(-140 25)
CNC(-175 55)
CNC(-165 110)
LIG(-145,350,-140,350)
LIG(60,215,35,215)
LIG(-65,385,-45,385)
LIG(-65,360,-65,385)
LIG(-105,335,-80,335)
LIG(-105,310,-105,335)
LIG(-35,135,-170,135)
LIG(-140,405,-140,350)
LIG(-120,365,-120,340)
LIG(-70,315,-70,340)
LIG(40,225,40,320)
LIG(35,205,35,215)
LIG(35,215,30,215)
LIG(-150,70,90,70)
LIG(-85,55,-85,60)
LIG(-145,350,-145,305)
LIG(-155,325,-55,325)
LIG(10,45,10,115)
LIG(-190,55,-175,55)
LIG(-95,190,-90,190)
LIG(-110,80,55,80)
LIG(-210,95,-205,95)
LIG(-190,110,-165,110)
LIG(-25,225,40,225)
LIG(130,120,5,120)
LIG(-5,385,40,385)
LIG(5,-65,5,120)
LIG(-5,-65,-5,95)
LIG(40,205,40,225)
LIG(20,30,20,20)
LIG(130,50,130,120)
LIG(-110,130,-85,130)
LIG(90,70,90,50)
LIG(-40,115,10,115)
LIG(-70,30,-70,45)
LIG(-160,55,-160,180)
LIG(-140,120,-140,145)
LIG(-85,145,-120,145)
LIG(40,320,40,385)
LIG(-10,210,0,210)
LIG(-25,285,-20,285)
LIG(200,120,315,120)
LIG(55,80,55,65)
LIG(55,65,155,65)
LIG(115,70,280,70)
LIG(-155,210,-155,325)
LIG(-90,190,-90,220)
LIG(-140,305,-145,305)
LIG(-145,305,-145,275)
LIG(-145,275,-120,275)
LIG(25,205,25,215)
LIG(55,90,55,130)
LIG(390,170,55,170)
LIG(-120,275,-25,275)
LIG(-85,60,180,60)
LIG(-190,380,-115,380)
LIG(-110,80,-110,130)
LIG(-230,80,-170,80)
LIG(390,50,390,170)
LIG(-95,125,-95,190)
LIG(325,50,390,50)
LIG(155,65,245,65)
LIG(155,145,155,65)
LIG(-155,100,-145,100)
LIG(-140,285,-25,285)
LIG(200,130,200,120)
LIG(-150,95,-150,70)
LIG(235,145,155,145)
LIG(-80,375,-80,335)
LIG(-15,130,-15,135)
LIG(-120,185,-120,145)
LIG(-5,95,375,95)
LIG(-205,365,-120,365)
LIG(-25,320,40,320)
LIG(245,45,245,65)
LIG(55,90,0,90)
LIG(0,375,-5,375)
LIG(55,45,55,65)
LIG(-75,180,-80,180)
LIG(-45,415,-25,415)
LIG(-45,385,-45,415)
LIG(-115,360,-65,360)
LIG(-115,370,-115,360)
LIG(-160,180,-160,210)
LIG(0,210,0,375)
LIG(-120,220,-120,275)
LIG(-25,285,-25,315)
LIG(-25,315,-25,320)
LIG(-140,295,-140,285)
LIG(-120,340,-70,340)
LIG(-205,95,-150,95)
LIG(-190,110,-190,380)
LIG(-140,120,-155,120)
LIG(-205,95,-205,365)
LIG(-155,120,-155,100)
LIG(-40,315,-25,315)
LIG(5,415,10,415)
LIG(-5,395,-5,405)
LIG(-5,405,-140,405)
LIG(-195,110,-190,110)
LIG(-10,95,-5,95)
LIG(180,160,285,160)
LIG(200,140,195,140)
LIG(195,140,195,110)
LIG(195,110,315,110)
LIG(300,150,315,150)
LIG(315,150,315,120)
LIG(315,120,320,120)
LIG(0,90,0,-70)
LIG(280,70,280,50)
LIG(210,30,210,20)
LIG(325,20,330,20)
LIG(-140,20,-140,25)
LIG(-75,115,-75,180)
LIG(130,20,130,50)
LIG(270,150,115,150)
LIG(10,-65,10,45)
LIG(130,20,140,20)
LIG(90,70,115,70)
LIG(-170,135,-170,85)
LIG(170,40,205,40)
LIG(170,15,170,40)
LIG(30,215,25,215)
LIG(-160,210,-155,210)
LIG(30,205,30,215)
LIG(205,40,205,10)
LIG(20,20,130,20)
LIG(210,40,205,40)
LIG(-35,125,-35,135)
LIG(-10,105,-10,95)
LIG(-35,105,-10,105)
LIG(115,70,115,150)
LIG(-10,215,-25,215)
LIG(15,10,135,10)
LIG(15,40,15,10)
LIG(20,40,15,40)
LIG(310,50,325,50)
LIG(205,10,325,10)
LIG(315,150,375,150)
LIG(375,150,375,95)
LIG(-70,45,10,45)
LIG(360,15,360,80)
LIG(360,80,195,80)
LIG(195,80,195,110)
LIG(180,60,180,160)
LIG(180,60,295,60)
LIG(210,20,325,20)
LIG(130,50,120,50)
LIG(325,50,325,20)
LIG(-120,145,-140,145)
LIG(-175,40,-140,40)
LIG(-85,125,-85,130)
LIG(5,120,5,170)
LIG(15,135,10,135)
LIG(10,115,10,135)
LIG(-10,210,-10,215)
LIG(-5,95,-5,135)
LIG(55,130,-15,130)
LIG(55,130,55,170)
LIG(-90,90,-135,90)
LIG(-105,55,-85,55)
LIG(-105,55,-105,180)
LIG(-105,180,-160,180)
LIG(-60,220,-90,220)
LIG(-90,180,-90,190)
LIG(-170,85,15,85)
LIG(-170,85,-170,80)
LIG(15,85,15,40)
LIG(-175,40,-175,10)
LIG(-75,30,-75,-5)
LIG(-135,90,-135,50)
LIG(-105,45,-105,40)
LIG(-105,40,-95,40)
LIG(-95,40,-95,25)
LIG(-95,25,-70,25)
LIG(-70,25,-70,10)
LIG(-105,-5,-105,5)
LIG(-75,-5,-105,-5)
LIG(-75,30,-70,30)
LIG(-175,55,-160,55)
LIG(-175,55,-175,40)
LIG(-140,25,-140,30)
LIG(-165,110,-145,110)
LIG(-150,50,-150,25)
LIG(-150,25,-140,25)
LIG(-150,50,-165,50)
LIG(-165,50,-165,110)
TEXT 157 44  #Qout
TEXT -225 74  #Enable
TEXT -196 91  #reset
TEXT -181 105  #Sclear
TEXT 3 270  #Clkout
TEXT -3 309  #Qout
TEXT 353 5  #Clkout
TEXT 343 105  #Clkout
TEXT 173 7  #Clkout
TEXT 347 44  #Qout
TEXT 337 144  #Qout
FFIG C:\Users\AcidRobot\github\clock_work\twelve_dlatch.sch
