DSCH3
VERSION 12/1/2015 9:06:05 PM
BB(-184,75,190,300)
SYM  #and2
BB(-45,235,-10,255)
TITLE -33 246  #&
MODEL 402
PROP                                                                                                                                   
REC(-20,100,0,0, )
VIS 0
PIN(-45,250,0.000,0.000)b
PIN(-45,240,0.000,0.000)a
PIN(-10,245,0.090,0.140)s
LIG(-45,250,-37,250)
LIG(-37,235,-37,255)
LIG(-17,245,-10,245)
LIG(-18,247,-21,251)
LIG(-17,245,-18,247)
LIG(-18,243,-17,245)
LIG(-21,239,-18,243)
LIG(-26,236,-21,239)
LIG(-21,251,-26,254)
LIG(-26,254,-37,255)
LIG(-37,235,-26,236)
LIG(-45,240,-37,240)
VLG  and and2(out,a,b);
FSYM
SYM  #nand3
BB(-35,200,0,230)
TITLE -15 215  #&
MODEL 203
PROP                                                                                                                                    
REC(0,200,0,0,P)
VIS 0
PIN(0,205,0.000,0.000)a
PIN(0,215,0.000,0.000)b
PIN(0,225,0.000,0.000)c
PIN(-40,215,0.060,0.070)s
LIG(0,225,-10,225)
LIG(0,215,-10,215)
LIG(0,205,-10,205)
LIG(-10,215,-10,230)
LIG(-25,226,-20,229)
LIG(-29,218,-25,226)
LIG(-10,200,-10,215)
LIG(-10,200,-20,201)
LIG(-30,215,-29,218)
LIG(-29,212,-30,215)
LIG(-10,230,-20,229)
LIG(-25,204,-29,212)
LIG(-20,201,-25,204)
LIG(-34,215,-40,215)
LIG(-32,215,-32,215)
VLG    nand nand3(out,a,b,c);
FSYM
SYM  #and2
BB(-100,200,-65,220)
TITLE -88 211  #&
MODEL 402
PROP                                                                                                                                    
REC(-80,-20,0,0, )
VIS 0
PIN(-100,215,0.000,0.000)b
PIN(-100,205,0.000,0.000)a
PIN(-65,210,0.090,0.560)s
LIG(-100,215,-92,215)
LIG(-92,200,-92,220)
LIG(-72,210,-65,210)
LIG(-73,212,-76,216)
LIG(-72,210,-73,212)
LIG(-73,208,-72,210)
LIG(-76,204,-73,208)
LIG(-81,201,-76,204)
LIG(-76,216,-81,219)
LIG(-81,219,-92,220)
LIG(-92,200,-81,201)
LIG(-100,205,-92,205)
VLG    and and2(out,a,b);
FSYM
SYM  #button
BB(-184,211,-175,219)
TITLE -180 215  #button9
MODEL 59
PROP                                                                                                                                    
REC(-183,212,6,6,r)
VIS 1
PIN(-175,215,0.000,0.000)in9
LIG(-176,215,-175,215)
LIG(-184,219,-184,211)
LIG(-176,219,-184,219)
LIG(-176,211,-176,219)
LIG(-184,211,-176,211)
LIG(-183,218,-183,212)
LIG(-177,218,-183,218)
LIG(-177,212,-177,218)
LIG(-183,212,-177,212)
FSYM
SYM  #clock
BB(-50,192,-35,198)
TITLE -45 195  #clock2
MODEL 69
PROP   20.00 20.00                                                                                                                                
REC(-48,193,6,4,r)
VIS 1
PIN(-35,195,1.500,0.280)clk2
LIG(-40,195,-35,195)
LIG(-45,193,-47,193)
LIG(-41,193,-43,193)
LIG(-40,192,-40,198)
LIG(-50,198,-50,192)
LIG(-45,197,-45,193)
LIG(-43,193,-43,197)
LIG(-43,197,-45,197)
LIG(-47,197,-49,197)
LIG(-47,193,-47,197)
LIG(-40,198,-50,198)
LIG(-40,192,-50,192)
FSYM
SYM  #button
BB(-184,181,-175,189)
TITLE -180 185  #button7
MODEL 59
PROP                                                                                                                                    
REC(-183,182,6,6,r)
VIS 1
PIN(-175,185,0.000,0.000)in7
LIG(-176,185,-175,185)
LIG(-184,189,-184,181)
LIG(-176,189,-184,189)
LIG(-176,181,-176,189)
LIG(-184,181,-176,181)
LIG(-183,188,-183,182)
LIG(-177,188,-183,188)
LIG(-177,182,-177,188)
LIG(-183,182,-177,182)
FSYM
SYM  #button
BB(-184,191,-175,199)
TITLE -180 195  #button8
MODEL 59
PROP                                                                                                                                    
REC(-183,192,6,6,r)
VIS 1
PIN(-175,195,0.000,0.000)in8
LIG(-176,195,-175,195)
LIG(-184,199,-184,191)
LIG(-176,199,-184,199)
LIG(-176,191,-176,199)
LIG(-184,191,-176,191)
LIG(-183,198,-183,192)
LIG(-177,198,-183,198)
LIG(-177,192,-177,198)
LIG(-183,192,-177,192)
FSYM
SYM  #xor2
BB(-115,255,-80,275)
TITLE -98 265  #^
MODEL 602
PROP                                                                                                                                   
REC(-20,100,0,0, )
VIS 0
PIN(-115,260,0.000,0.000)a
PIN(-115,270,0.000,0.000)b
PIN(-80,265,0.090,0.560)out
LIG(-107,272,-111,275)
LIG(-103,272,-107,275)
LIG(-87,265,-80,265)
LIG(-88,267,-91,271)
LIG(-87,265,-88,267)
LIG(-88,263,-87,265)
LIG(-91,259,-88,263)
LIG(-96,256,-91,259)
LIG(-91,271,-96,274)
LIG(-96,274,-107,275)
LIG(-107,255,-96,256)
LIG(-101,268,-103,272)
LIG(-107,255,-103,258)
LIG(-103,258,-101,262)
LIG(-101,262,-100,265)
LIG(-100,265,-101,268)
LIG(-111,255,-107,258)
LIG(-107,258,-105,262)
LIG(-105,262,-104,265)
LIG(-104,265,-105,268)
LIG(-105,268,-107,272)
LIG(-115,260,-106,260)
LIG(-115,270,-106,270)
VLG  xor xor2(out,a,b);
FSYM
SYM  #and2
BB(-80,260,-45,280)
TITLE -68 271  #&
MODEL 402
PROP                                                                                                                                   
REC(-35,100,0,0, )
VIS 0
PIN(-80,275,0.000,0.000)b
PIN(-80,265,0.000,0.000)a
PIN(-45,270,0.090,0.070)s
LIG(-80,275,-72,275)
LIG(-72,260,-72,280)
LIG(-52,270,-45,270)
LIG(-53,272,-56,276)
LIG(-52,270,-53,272)
LIG(-53,268,-52,270)
LIG(-56,264,-53,268)
LIG(-61,261,-56,264)
LIG(-56,276,-61,279)
LIG(-61,279,-72,280)
LIG(-72,260,-61,261)
LIG(-80,265,-72,265)
VLG  and and2(out,a,b);
FSYM
SYM  #dreg
BB(-45,265,-15,290)
TITLE -33 273  #dreg49
MODEL 860
PROP                                                                                                                                   
REC(-70,255,0,0,r)
VIS 5
PIN(-45,270,0.000,0.000)D
PIN(-45,280,0.000,0.000)RST
PIN(-30,290,0.000,0.000)H
PIN(-15,280,0.120,0.210)Q
PIN(-15,270,0.120,0.000)nQ
LIG(-45,280,-40,280)
LIG(-45,270,-40,270)
LIG(-30,290,-30,289)
LIG(-30,287,-30,287)
LIG(-20,280,-15,280)
LIG(-20,270,-15,270)
LIG(-20,285,-40,285)
LIG(-20,265,-20,285)
LIG(-40,265,-20,265)
LIG(-40,285,-40,265)
LIG(-31,285,-30,283)
LIG(-30,283,-29,285)
VLG     module dreg(D,RST,H,Q,nQ);
VLG      input D,RST,H;
VLG      output Q,nQ;
VLG     endmodule
FSYM
SYM  #and2
BB(-25,135,10,155)
TITLE -13 146  #&
MODEL 402
PROP                                                                                                                                   
REC(0,0,0,0, )
VIS 0
PIN(-25,150,0.000,0.000)b
PIN(-25,140,0.000,0.000)a
PIN(10,145,0.090,0.140)s
LIG(-25,150,-17,150)
LIG(-17,135,-17,155)
LIG(3,145,10,145)
LIG(2,147,-1,151)
LIG(3,145,2,147)
LIG(2,143,3,145)
LIG(-1,139,2,143)
LIG(-6,136,-1,139)
LIG(-1,151,-6,154)
LIG(-6,154,-17,155)
LIG(-17,135,-6,136)
LIG(-25,140,-17,140)
VLG  and and2(out,a,b);
FSYM
SYM  #xor2
BB(-95,155,-60,175)
TITLE -78 165  #^
MODEL 602
PROP                                                                                                                                   
REC(0,0,0,0, )
VIS 0
PIN(-95,160,0.000,0.000)a
PIN(-95,170,0.000,0.000)b
PIN(-60,165,0.090,0.070)out
LIG(-87,172,-91,175)
LIG(-83,172,-87,175)
LIG(-67,165,-60,165)
LIG(-68,167,-71,171)
LIG(-67,165,-68,167)
LIG(-68,163,-67,165)
LIG(-71,159,-68,163)
LIG(-76,156,-71,159)
LIG(-71,171,-76,174)
LIG(-76,174,-87,175)
LIG(-87,155,-76,156)
LIG(-81,168,-83,172)
LIG(-87,155,-83,158)
LIG(-83,158,-81,162)
LIG(-81,162,-80,165)
LIG(-80,165,-81,168)
LIG(-91,155,-87,158)
LIG(-87,158,-85,162)
LIG(-85,162,-84,165)
LIG(-84,165,-85,168)
LIG(-85,168,-87,172)
LIG(-95,160,-86,160)
LIG(-95,170,-86,170)
VLG  xor xor2(out,a,b);
FSYM
SYM  #and2
BB(-60,160,-25,180)
TITLE -48 171  #&
MODEL 402
PROP                                                                                                                                   
REC(-15,0,0,0, )
VIS 0
PIN(-60,175,0.000,0.000)b
PIN(-60,165,0.000,0.000)a
PIN(-25,170,0.090,0.070)s
LIG(-60,175,-52,175)
LIG(-52,160,-52,180)
LIG(-32,170,-25,170)
LIG(-33,172,-36,176)
LIG(-32,170,-33,172)
LIG(-33,168,-32,170)
LIG(-36,164,-33,168)
LIG(-41,161,-36,164)
LIG(-36,176,-41,179)
LIG(-41,179,-52,180)
LIG(-52,160,-41,161)
LIG(-60,165,-52,165)
VLG  and and2(out,a,b);
FSYM
SYM  #dreg
BB(-25,165,5,190)
TITLE -13 173  #dreg49
MODEL 860
PROP                                                                                                                                   
REC(-50,155,0,0,r)
VIS 5
PIN(-25,170,0.000,0.000)D
PIN(-25,180,0.000,0.000)RST
PIN(-10,190,0.000,0.000)H
PIN(5,180,0.120,0.280)Q
PIN(5,170,0.120,0.000)nQ
LIG(-25,180,-20,180)
LIG(-25,170,-20,170)
LIG(-10,190,-10,189)
LIG(-10,187,-10,187)
LIG(0,180,5,180)
LIG(0,170,5,170)
LIG(0,185,-20,185)
LIG(0,165,0,185)
LIG(-20,165,0,165)
LIG(-20,185,-20,165)
LIG(-11,185,-10,183)
LIG(-10,183,-9,185)
VLG     module dreg(D,RST,H,Q,nQ);
VLG      input D,RST,H;
VLG      output Q,nQ;
VLG     endmodule
FSYM
SYM  #and2
BB(120,220,155,240)
TITLE 132 231  #&
MODEL 402
PROP                                                                                                                                   
REC(145,85,0,0, )
VIS 0
PIN(120,235,0.000,0.000)b
PIN(120,225,0.000,0.000)a
PIN(155,230,0.090,0.000)s
LIG(120,235,128,235)
LIG(128,220,128,240)
LIG(148,230,155,230)
LIG(147,232,144,236)
LIG(148,230,147,232)
LIG(147,228,148,230)
LIG(144,224,147,228)
LIG(139,221,144,224)
LIG(144,236,139,239)
LIG(139,239,128,240)
LIG(128,220,139,221)
LIG(120,225,128,225)
VLG  and and2(out,a,b);
FSYM
SYM  #xor2
BB(50,240,85,260)
TITLE 67 250  #^
MODEL 602
PROP                                                                                                                                   
REC(145,85,0,0, )
VIS 0
PIN(50,245,0.000,0.000)a
PIN(50,255,0.000,0.000)b
PIN(85,250,0.090,0.560)out
LIG(58,257,54,260)
LIG(62,257,58,260)
LIG(78,250,85,250)
LIG(77,252,74,256)
LIG(78,250,77,252)
LIG(77,248,78,250)
LIG(74,244,77,248)
LIG(69,241,74,244)
LIG(74,256,69,259)
LIG(69,259,58,260)
LIG(58,240,69,241)
LIG(64,253,62,257)
LIG(58,240,62,243)
LIG(62,243,64,247)
LIG(64,247,65,250)
LIG(65,250,64,253)
LIG(54,240,58,243)
LIG(58,243,60,247)
LIG(60,247,61,250)
LIG(61,250,60,253)
LIG(60,253,58,257)
LIG(50,245,59,245)
LIG(50,255,59,255)
VLG  xor xor2(out,a,b);
FSYM
SYM  #and2
BB(85,245,120,265)
TITLE 97 256  #&
MODEL 402
PROP                                                                                                                                   
REC(130,85,0,0, )
VIS 0
PIN(85,260,0.000,0.000)b
PIN(85,250,0.000,0.000)a
PIN(120,255,0.090,0.070)s
LIG(85,260,93,260)
LIG(93,245,93,265)
LIG(113,255,120,255)
LIG(112,257,109,261)
LIG(113,255,112,257)
LIG(112,253,113,255)
LIG(109,249,112,253)
LIG(104,246,109,249)
LIG(109,261,104,264)
LIG(104,264,93,265)
LIG(93,245,104,246)
LIG(85,250,93,250)
VLG  and and2(out,a,b);
FSYM
SYM  #dreg
BB(120,250,150,275)
TITLE 132 258  #dreg49
MODEL 860
PROP                                                                                                                                   
REC(95,240,0,0,r)
VIS 5
PIN(120,255,0.000,0.000)D
PIN(120,265,0.000,0.000)RST
PIN(135,275,0.000,0.000)H
PIN(150,265,0.120,0.280)Q
PIN(150,255,0.120,0.000)nQ
LIG(120,265,125,265)
LIG(120,255,125,255)
LIG(135,275,135,274)
LIG(135,272,135,272)
LIG(145,265,150,265)
LIG(145,255,150,255)
LIG(145,270,125,270)
LIG(145,250,145,270)
LIG(125,250,145,250)
LIG(125,270,125,250)
LIG(134,270,135,268)
LIG(135,268,136,270)
VLG     module dreg(D,RST,H,Q,nQ);
VLG      input D,RST,H;
VLG      output Q,nQ;
VLG     endmodule
FSYM
SYM  #dreg
BB(130,175,160,200)
TITLE 142 183  #dreg49
MODEL 860
PROP                                                                                                                                   
REC(105,165,0,0,r)
VIS 5
PIN(130,180,0.000,0.000)D
PIN(130,190,0.000,0.000)RST
PIN(145,200,0.000,0.000)H
PIN(160,190,0.120,0.210)Q
PIN(160,180,0.120,0.000)nQ
LIG(130,190,135,190)
LIG(130,180,135,180)
LIG(145,200,145,199)
LIG(145,197,145,197)
LIG(155,190,160,190)
LIG(155,180,160,180)
LIG(155,195,135,195)
LIG(155,175,155,195)
LIG(135,175,155,175)
LIG(135,195,135,175)
LIG(144,195,145,193)
LIG(145,193,146,195)
VLG     module dreg(D,RST,H,Q,nQ);
VLG      input D,RST,H;
VLG      output Q,nQ;
VLG     endmodule
FSYM
SYM  #and2
BB(95,170,130,190)
TITLE 107 181  #&
MODEL 402
PROP                                                                                                                                   
REC(140,10,0,0, )
VIS 0
PIN(95,185,0.000,0.000)b
PIN(95,175,0.000,0.000)a
PIN(130,180,0.090,0.070)s
LIG(95,185,103,185)
LIG(103,170,103,190)
LIG(123,180,130,180)
LIG(122,182,119,186)
LIG(123,180,122,182)
LIG(122,178,123,180)
LIG(119,174,122,178)
LIG(114,171,119,174)
LIG(119,186,114,189)
LIG(114,189,103,190)
LIG(103,170,114,171)
LIG(95,175,103,175)
VLG  and and2(out,a,b);
FSYM
SYM  #xor2
BB(60,165,95,185)
TITLE 77 175  #^
MODEL 602
PROP                                                                                                                                   
REC(155,10,0,0, )
VIS 0
PIN(60,170,0.000,0.000)a
PIN(60,180,0.000,0.000)b
PIN(95,175,0.090,0.070)out
LIG(68,182,64,185)
LIG(72,182,68,185)
LIG(88,175,95,175)
LIG(87,177,84,181)
LIG(88,175,87,177)
LIG(87,173,88,175)
LIG(84,169,87,173)
LIG(79,166,84,169)
LIG(84,181,79,184)
LIG(79,184,68,185)
LIG(68,165,79,166)
LIG(74,178,72,182)
LIG(68,165,72,168)
LIG(72,168,74,172)
LIG(74,172,75,175)
LIG(75,175,74,178)
LIG(64,165,68,168)
LIG(68,168,70,172)
LIG(70,172,71,175)
LIG(71,175,70,178)
LIG(70,178,68,182)
LIG(60,170,69,170)
LIG(60,180,69,180)
VLG  xor xor2(out,a,b);
FSYM
SYM  #and2
BB(130,145,165,165)
TITLE 142 156  #&
MODEL 402
PROP                                                                                                                                   
REC(155,10,0,0, )
VIS 0
PIN(130,160,0.000,0.000)b
PIN(130,150,0.000,0.000)a
PIN(165,155,0.090,0.140)s
LIG(130,160,138,160)
LIG(138,145,138,165)
LIG(158,155,165,155)
LIG(157,157,154,161)
LIG(158,155,157,157)
LIG(157,153,158,155)
LIG(154,149,157,153)
LIG(149,146,154,149)
LIG(154,161,149,164)
LIG(149,164,138,165)
LIG(138,145,149,146)
LIG(130,150,138,150)
VLG  and and2(out,a,b);
FSYM
SYM  #digit
BB(10,75,35,110)
TITLE 10 107  #digit1
MODEL 89
PROP                                                                                                                                   
REC(15,80,15,21,r)
VIS 4
PIN(15,110,0.000,0.000)digit1
PIN(20,110,0.000,0.000)digit2
PIN(25,110,0.000,0.000)digit3
PIN(30,110,0.000,0.000)digit4
LIG(10,75,10,105)
LIG(35,75,10,75)
LIG(35,105,35,75)
LIG(10,105,35,105)
LIG(15,105,15,110)
LIG(20,105,20,110)
LIG(25,105,25,110)
LIG(30,105,30,110)
FSYM
CNC(110 235)
CNC(165 265)
CNC(-60 200)
CNC(0 280)
CNC(-55 250)
CNC(-115 195)
CNC(-100 170)
CNC(-100 170)
CNC(-100 170)
CNC(-120 270)
CNC(15 205)
CNC(35 195)
CNC(-10 195)
CNC(45 245)
CNC(55 150)
CNC(35 290)
CNC(120 160)
CNC(-45 285)
CNC(175 190)
CNC(40 295)
CNC(85 200)
CNC(-125 185)
CNC(-25 160)
CNC(30 160)
CNC(30 180)
LIG(-60,210,-60,200)
LIG(0,230,0,225)
LIG(-115,230,0,230)
LIG(-115,195,-175,195)
LIG(-65,210,-60,210)
LIG(-175,215,-100,215)
LIG(-115,260,-115,250)
LIG(-115,250,-55,250)
LIG(-115,270,-120,270)
LIG(-120,270,-120,240)
LIG(-120,240,-45,240)
LIG(50,235,110,235)
LIG(-55,250,-45,250)
LIG(-55,260,-55,250)
LIG(0,260,-55,260)
LIG(-100,195,-115,195)
LIG(-15,280,0,280)
LIG(0,280,0,260)
LIG(0,280,20,280)
LIG(-100,205,-105,205)
LIG(-105,205,-105,225)
LIG(-105,225,-40,225)
LIG(-40,225,-40,215)
LIG(-115,195,-115,230)
LIG(-175,185,-125,185)
LIG(-45,285,-45,280)
LIG(-30,160,-25,160)
LIG(-120,300,-120,270)
LIG(-95,170,-100,170)
LIG(-100,170,-100,140)
LIG(-100,140,-25,140)
LIG(-100,170,-100,195)
LIG(30,160,30,110)
LIG(190,300,-120,300)
LIG(30,180,30,160)
LIG(165,155,190,155)
LIG(15,210,15,205)
LIG(25,205,25,110)
LIG(-25,185,-25,180)
LIG(135,290,135,275)
LIG(35,195,120,195)
LIG(35,195,35,290)
LIG(-10,195,35,195)
LIG(-10,195,-10,185)
LIG(120,200,145,200)
LIG(120,195,120,200)
LIG(-35,195,-10,195)
LIG(45,245,45,225)
LIG(-10,245,45,245)
LIG(55,145,55,150)
LIG(10,145,55,145)
LIG(50,245,50,235)
LIG(130,190,130,215)
LIG(-60,200,85,200)
LIG(175,190,175,170)
LIG(160,190,175,190)
LIG(175,170,120,170)
LIG(120,170,120,160)
LIG(120,160,130,160)
LIG(-30,290,35,290)
LIG(55,150,130,150)
LIG(55,180,55,150)
LIG(60,180,55,180)
LIG(60,160,120,160)
LIG(60,170,60,160)
LIG(120,265,120,295)
LIG(165,265,175,265)
LIG(165,265,165,245)
LIG(150,265,165,265)
LIG(165,245,110,245)
LIG(110,245,110,235)
LIG(110,235,120,235)
LIG(35,290,135,290)
LIG(45,225,120,225)
LIG(45,255,45,245)
LIG(50,255,45,255)
LIG(20,280,20,110)
LIG(5,180,30,180)
LIG(15,210,175,210)
LIG(0,205,15,205)
LIG(15,205,15,110)
LIG(95,200,95,185)
LIG(175,190,175,205)
LIG(175,205,25,205)
LIG(175,265,175,210)
LIG(130,215,40,215)
LIG(-60,200,-60,175)
LIG(40,295,-45,295)
LIG(85,260,85,200)
LIG(85,200,95,200)
LIG(-65,210,-65,255)
LIG(-65,255,-80,255)
LIG(-80,255,-80,275)
LIG(-45,285,-125,285)
LIG(-125,285,-125,185)
LIG(-125,185,-25,185)
LIG(40,215,40,295)
LIG(120,295,40,295)
LIG(-45,295,-45,285)
LIG(190,155,190,300)
LIG(-25,160,-25,150)
LIG(-25,160,30,160)
LIG(-25,150,-95,150)
LIG(-95,150,-95,160)
LIG(0,215,30,215)
LIG(30,215,30,180)
TEXT -160 182  #Reset
TEXT -149 209  #sclear
FFIG C:\Users\Acid_Robot\git_repo\clock_work\work.sch
